[
	{
		"unidad_productiva_id": "1",
		"nombre_plan": "Coenergía",
		"codigo": "10000",
		"cuenta_mayor": "ACTIVOS"
	},
	{
		"unidad_productiva_id": "1",
		"nombre_plan": "Coenergía",
		"codigo": "10100",
		"cuenta_mayor": "ACTIVOS",
		"subcuenta": "Efectivo"
	},
	{
		"unidad_productiva_id": "1",
		"nombre_plan": "Coenergía",
		"codigo": "10101",
		"cuenta_mayor": "ACTIVOS",
		"subcuenta": "Efectivo",
		"registro": "Banco"
	},
	{
		"unidad_productiva_id": "1",
		"nombre_plan": "Coenergía",
		"codigo": "10102",
		"cuenta_mayor": "ACTIVOS",
		"subcuenta": "Efectivo",
		"registro": "Caja"
	},
	{
		"unidad_productiva_id": "1",
		"nombre_plan": "Coenergía",
		"codigo": "10200",
		"cuenta_mayor": "ACTIVOS",
		"subcuenta": "Cuentas Por Cobrar"
	},
	{
		"unidad_productiva_id": "1",
		"nombre_plan": "Coenergía",
		"codigo": "10201",
		"cuenta_mayor": "ACTIVOS",
		"subcuenta": "Cuentas Por Cobrar",
		"registro": "Clientes"
	},
	{
		"unidad_productiva_id": "1",
		"nombre_plan": "Coenergía",
		"codigo": "10202",
		"cuenta_mayor": "ACTIVOS",
		"subcuenta": "Cuentas Por Cobrar",
		"registro": "Otras Cuentas Por Cobrar"
	},
	{
		"unidad_productiva_id": "1",
		"nombre_plan": "Coenergía",
		"codigo": "10300",
		"cuenta_mayor": "ACTIVOS",
		"subcuenta": "Préstamos"
	},
	{
		"unidad_productiva_id": "1",
		"nombre_plan": "Coenergía",
		"codigo": "10301",
		"cuenta_mayor": "ACTIVOS",
		"subcuenta": "Préstamos",
		"registro": "Préstamo A Socios"
	},
	{
		"unidad_productiva_id": "1",
		"nombre_plan": "Coenergía",
		"codigo": "10302",
		"cuenta_mayor": "ACTIVOS",
		"subcuenta": "Préstamos",
		"registro": "Préstamo A Terceros"
	},
	{
		"unidad_productiva_id": "1",
		"nombre_plan": "Coenergía",
		"codigo": "10400",
		"cuenta_mayor": "ACTIVOS",
		"subcuenta": "Garantías"
	},
	{
		"unidad_productiva_id": "1",
		"nombre_plan": "Coenergía",
		"codigo": "10401",
		"cuenta_mayor": "ACTIVOS",
		"subcuenta": "Garantías",
		"registro": "Garantías"
	},
	{
		"unidad_productiva_id": "1",
		"nombre_plan": "Coenergía",
		"codigo": "10500",
		"cuenta_mayor": "ACTIVOS",
		"subcuenta": "Fondo Por Rendir"
	},
	{
		"unidad_productiva_id": "1",
		"nombre_plan": "Coenergía",
		"codigo": "10501",
		"cuenta_mayor": "ACTIVOS",
		"subcuenta": "Fondo Por Rendir",
		"registro": "Fondo Por Rendir"
	},
	{
		"unidad_productiva_id": "1",
		"nombre_plan": "Coenergía",
		"codigo": "10600",
		"cuenta_mayor": "ACTIVOS",
		"subcuenta": "Materiales"
	},
	{
		"unidad_productiva_id": "1",
		"nombre_plan": "Coenergía",
		"codigo": "10601",
		"cuenta_mayor": "ACTIVOS",
		"subcuenta": "Materiales",
		"registro": "Materiales"
	},
	{
		"unidad_productiva_id": "1",
		"nombre_plan": "Coenergía",
		"codigo": "10700",
		"cuenta_mayor": "ACTIVOS",
		"subcuenta": "IVA Crédito Fiscal"
	},
	{
		"unidad_productiva_id": "1",
		"nombre_plan": "Coenergía",
		"codigo": "10701",
		"cuenta_mayor": "ACTIVOS",
		"subcuenta": "IVA Crédito Fiscal",
		"registro": "IVA Crédito Fiscal"
	},
	{
		"unidad_productiva_id": "1",
		"nombre_plan": "Coenergía",
		"codigo": "10800",
		"cuenta_mayor": "ACTIVOS",
		"subcuenta": "Inversiones En Otras Cooperativas"
	},
	{
		"unidad_productiva_id": "1",
		"nombre_plan": "Coenergía",
		"codigo": "10801",
		"cuenta_mayor": "ACTIVOS",
		"subcuenta": "Inversiones En Otras Cooperativas",
		"registro": "Inversiones En Otras Cooperativas"
	},
	{
		"unidad_productiva_id": "1",
		"nombre_plan": "Coenergía",
		"codigo": "10900",
		"cuenta_mayor": "ACTIVOS",
		"subcuenta": "Vehículos"
	},
	{
		"unidad_productiva_id": "1",
		"nombre_plan": "Coenergía",
		"codigo": "10901",
		"cuenta_mayor": "ACTIVOS",
		"subcuenta": "Vehículos",
		"registro": "Vehículo"
	},
	{
		"unidad_productiva_id": "1",
		"nombre_plan": "Coenergía",
		"codigo": "10902",
		"cuenta_mayor": "ACTIVOS",
		"subcuenta": "Vehículos",
		"registro": "Depreciación"
	},
	{
		"unidad_productiva_id": "1",
		"nombre_plan": "Coenergía",
		"codigo": "20000",
		"cuenta_mayor": "PASIVOS"
	},
	{
		"unidad_productiva_id": "1",
		"nombre_plan": "Coenergía",
		"codigo": "20100",
		"cuenta_mayor": "PASIVOS",
		"subcuenta": "Proveedores"
	},
	{
		"unidad_productiva_id": "1",
		"nombre_plan": "Coenergía",
		"codigo": "20101",
		"cuenta_mayor": "PASIVOS",
		"subcuenta": "Proveedores",
		"registro": "Proveedores"
	},
	{
		"unidad_productiva_id": "1",
		"nombre_plan": "Coenergía",
		"codigo": "20200",
		"cuenta_mayor": "PASIVOS",
		"subcuenta": "Créditos"
	},
	{
		"unidad_productiva_id": "1",
		"nombre_plan": "Coenergía",
		"codigo": "20201",
		"cuenta_mayor": "PASIVOS",
		"subcuenta": "Créditos",
		"registro": "Créditos Por Pagar"
	},
	{
		"unidad_productiva_id": "1",
		"nombre_plan": "Coenergía",
		"codigo": "20300",
		"cuenta_mayor": "PASIVOS",
		"subcuenta": "Cuentas Por Pagar"
	},
	{
		"unidad_productiva_id": "1",
		"nombre_plan": "Coenergía",
		"codigo": "20301",
		"cuenta_mayor": "PASIVOS",
		"subcuenta": "Cuentas Por Pagar",
		"registro": "Cuentas Por Pagar"
	},
	{
		"unidad_productiva_id": "1",
		"nombre_plan": "Coenergía",
		"codigo": "20400",
		"cuenta_mayor": "PASIVOS",
		"subcuenta": "Anticipos Clientes"
	},
	{
		"unidad_productiva_id": "1",
		"nombre_plan": "Coenergía",
		"codigo": "20401",
		"cuenta_mayor": "PASIVOS",
		"subcuenta": "Anticipos Clientes",
		"registro": "Anticipo Clientes"
	},
	{
		"unidad_productiva_id": "1",
		"nombre_plan": "Coenergía",
		"codigo": "20500",
		"cuenta_mayor": "PASIVOS",
		"subcuenta": "Remuneraciones Por Pagar"
	},
	{
		"unidad_productiva_id": "1",
		"nombre_plan": "Coenergía",
		"codigo": "20501",
		"cuenta_mayor": "PASIVOS",
		"subcuenta": "Remuneraciones Por Pagar",
		"registro": "Sueldos Por Pagar"
	},
	{
		"unidad_productiva_id": "1",
		"nombre_plan": "Coenergía",
		"codigo": "20502",
		"cuenta_mayor": "PASIVOS",
		"subcuenta": "Remuneraciones Por Pagar",
		"registro": "Imposiciones Por Pagar"
	},
	{
		"unidad_productiva_id": "1",
		"nombre_plan": "Coenergía",
		"codigo": "20503",
		"cuenta_mayor": "PASIVOS",
		"subcuenta": "Remuneraciones Por Pagar",
		"registro": "Vacaciones (Provisión)"
	},
	{
		"unidad_productiva_id": "1",
		"nombre_plan": "Coenergía",
		"codigo": "20600",
		"cuenta_mayor": "PASIVOS",
		"subcuenta": "IVA Debito Fiscal"
	},
	{
		"unidad_productiva_id": "1",
		"nombre_plan": "Coenergía",
		"codigo": "20601",
		"cuenta_mayor": "PASIVOS",
		"subcuenta": "IVA Debito Fiscal",
		"registro": "IVA Debito Fiscal"
	},
	{
		"unidad_productiva_id": "1",
		"nombre_plan": "Coenergía",
		"codigo": "20700",
		"cuenta_mayor": "PASIVOS",
		"subcuenta": "Intereses Por Pagar"
	},
	{
		"unidad_productiva_id": "1",
		"nombre_plan": "Coenergía",
		"codigo": "20701",
		"cuenta_mayor": "PASIVOS",
		"subcuenta": "Intereses Por Pagar",
		"registro": "Intereses Por Pagar"
	},
	{
		"unidad_productiva_id": "1",
		"nombre_plan": "Coenergía",
		"codigo": "20800",
		"cuenta_mayor": "PASIVOS",
		"subcuenta": "Impuestos Por Pagar"
	},
	{
		"unidad_productiva_id": "1",
		"nombre_plan": "Coenergía",
		"codigo": "20801",
		"cuenta_mayor": "PASIVOS",
		"subcuenta": "Impuestos Por Pagar",
		"registro": "IVA Por Pagar"
	},
	{
		"unidad_productiva_id": "1",
		"nombre_plan": "Coenergía",
		"codigo": "20802",
		"cuenta_mayor": "PASIVOS",
		"subcuenta": "Impuestos Por Pagar",
		"registro": "Imp. 1era Cat. Por Pagar"
	},
	{
		"unidad_productiva_id": "1",
		"nombre_plan": "Coenergía",
		"codigo": "20803",
		"cuenta_mayor": "PASIVOS",
		"subcuenta": "Impuestos Por Pagar",
		"registro": "Retenciones Por Pagar"
	},
	{
		"unidad_productiva_id": "1",
		"nombre_plan": "Coenergía",
		"codigo": "30000",
		"cuenta_mayor": "PATRIMONIO"
	},
	{
		"unidad_productiva_id": "1",
		"nombre_plan": "Coenergía",
		"codigo": "30100",
		"cuenta_mayor": "PATRIMONIO",
		"subcuenta": "Capital Social"
	},
	{
		"unidad_productiva_id": "1",
		"nombre_plan": "Coenergía",
		"codigo": "30101",
		"cuenta_mayor": "PATRIMONIO",
		"subcuenta": "Capital Social",
		"registro": "Capital Social"
	},
	{
		"unidad_productiva_id": "1",
		"nombre_plan": "Coenergía",
		"codigo": "30102",
		"cuenta_mayor": "PATRIMONIO",
		"subcuenta": "Capital Social",
		"registro": "Capital Social Suscrito"
	},
	{
		"unidad_productiva_id": "1",
		"nombre_plan": "Coenergía",
		"codigo": "30103",
		"cuenta_mayor": "PATRIMONIO",
		"subcuenta": "Capital Social",
		"registro": "Excedentes Acumulados"
	},
	{
		"unidad_productiva_id": "1",
		"nombre_plan": "Coenergía",
		"codigo": "30200",
		"cuenta_mayor": "PATRIMONIO",
		"subcuenta": "Resultados Del Período"
	},
	{
		"unidad_productiva_id": "1",
		"nombre_plan": "Coenergía",
		"codigo": "30201",
		"cuenta_mayor": "PATRIMONIO",
		"subcuenta": "Resultados Del Período",
		"registro": "Excedentes Del Período"
	},
	{
		"unidad_productiva_id": "1",
		"nombre_plan": "Coenergía",
		"codigo": "40000",
		"cuenta_mayor": "COSTOS"
	},
	{
		"unidad_productiva_id": "1",
		"nombre_plan": "Coenergía",
		"codigo": "40100",
		"cuenta_mayor": "COSTOS",
		"subcuenta": "Costos de producción"
	},
	{
		"unidad_productiva_id": "1",
		"nombre_plan": "Coenergía",
		"codigo": "40101",
		"cuenta_mayor": "COSTOS",
		"subcuenta": "Costos de producción",
		"registro": "Materiales directos"
	},
	{
		"unidad_productiva_id": "1",
		"nombre_plan": "Coenergía",
		"codigo": "40102",
		"cuenta_mayor": "COSTOS",
		"subcuenta": "Costos de producción",
		"registro": "Materiales indirectos"
	},
	{
		"unidad_productiva_id": "1",
		"nombre_plan": "Coenergía",
		"codigo": "40103",
		"cuenta_mayor": "COSTOS",
		"subcuenta": "Costos de producción",
		"registro": "Servicios de terceros"
	},
	{
		"unidad_productiva_id": "1",
		"nombre_plan": "Coenergía",
		"codigo": "40104",
		"cuenta_mayor": "COSTOS",
		"subcuenta": "Costos de producción",
		"registro": "Arriendo de equipos"
	},
	{
		"unidad_productiva_id": "1",
		"nombre_plan": "Coenergía",
		"codigo": "40200",
		"cuenta_mayor": "COSTOS",
		"subcuenta": "Gastos de faena"
	},
	{
		"unidad_productiva_id": "1",
		"nombre_plan": "Coenergía",
		"codigo": "40201",
		"cuenta_mayor": "COSTOS",
		"subcuenta": "Gastos de faena",
		"registro": "Movilización"
	},
	{
		"unidad_productiva_id": "1",
		"nombre_plan": "Coenergía",
		"codigo": "40202",
		"cuenta_mayor": "COSTOS",
		"subcuenta": "Gastos de faena",
		"registro": "Viatico"
	},
	{
		"unidad_productiva_id": "1",
		"nombre_plan": "Coenergía",
		"codigo": "40203",
		"cuenta_mayor": "COSTOS",
		"subcuenta": "Gastos de faena",
		"registro": "Hospedaje"
	},
	{
		"unidad_productiva_id": "1",
		"nombre_plan": "Coenergía",
		"codigo": "40204",
		"cuenta_mayor": "COSTOS",
		"subcuenta": "Gastos de faena",
		"registro": "Pasajes"
	},
	{
		"unidad_productiva_id": "1",
		"nombre_plan": "Coenergía",
		"codigo": "40205",
		"cuenta_mayor": "COSTOS",
		"subcuenta": "Gastos de faena",
		"registro": "Otros gastos de faena"
	},
	{
		"unidad_productiva_id": "1",
		"nombre_plan": "Coenergía",
		"codigo": "40300",
		"cuenta_mayor": "COSTOS",
		"subcuenta": "Remuneraciones"
	},
	{
		"unidad_productiva_id": "1",
		"nombre_plan": "Coenergía",
		"codigo": "40301",
		"cuenta_mayor": "COSTOS",
		"subcuenta": "Remuneraciones",
		"registro": "Sueldos"
	},
	{
		"unidad_productiva_id": "1",
		"nombre_plan": "Coenergía",
		"codigo": "40302",
		"cuenta_mayor": "COSTOS",
		"subcuenta": "Remuneraciones",
		"registro": "Imposiciones"
	},
	{
		"unidad_productiva_id": "1",
		"nombre_plan": "Coenergía",
		"codigo": "40303",
		"cuenta_mayor": "COSTOS",
		"subcuenta": "Remuneraciones",
		"registro": "Vacaciones"
	},
	{
		"unidad_productiva_id": "1",
		"nombre_plan": "Coenergía",
		"codigo": "40304",
		"cuenta_mayor": "COSTOS",
		"subcuenta": "Remuneraciones",
		"registro": "Aguinaldos"
	},
	{
		"unidad_productiva_id": "1",
		"nombre_plan": "Coenergía",
		"codigo": "40305",
		"cuenta_mayor": "COSTOS",
		"subcuenta": "Remuneraciones",
		"registro": "Uniformes"
	},
	{
		"unidad_productiva_id": "1",
		"nombre_plan": "Coenergía",
		"codigo": "40306",
		"cuenta_mayor": "COSTOS",
		"subcuenta": "Remuneraciones",
		"registro": "Practicantes"
	},
	{
		"unidad_productiva_id": "1",
		"nombre_plan": "Coenergía",
		"codigo": "40307",
		"cuenta_mayor": "COSTOS",
		"subcuenta": "Remuneraciones",
		"registro": "Finiquito vacaciones"
	},
	{
		"unidad_productiva_id": "1",
		"nombre_plan": "Coenergía",
		"codigo": "40308",
		"cuenta_mayor": "COSTOS",
		"subcuenta": "Remuneraciones",
		"registro": "Otros finiquito"
	},
	{
		"unidad_productiva_id": "1",
		"nombre_plan": "Coenergía",
		"codigo": "40400",
		"cuenta_mayor": "COSTOS",
		"subcuenta": "Gastos administrativos"
	},
	{
		"unidad_productiva_id": "1",
		"nombre_plan": "Coenergía",
		"codigo": "40401",
		"cuenta_mayor": "COSTOS",
		"subcuenta": "Gastos administrativos",
		"registro": "Materiales oficina"
	},
	{
		"unidad_productiva_id": "1",
		"nombre_plan": "Coenergía",
		"codigo": "40402",
		"cuenta_mayor": "COSTOS",
		"subcuenta": "Gastos administrativos",
		"registro": "Legales y bancarios"
	},
	{
		"unidad_productiva_id": "1",
		"nombre_plan": "Coenergía",
		"codigo": "40403",
		"cuenta_mayor": "COSTOS",
		"subcuenta": "Gastos administrativos",
		"registro": "Asambleas"
	},
	{
		"unidad_productiva_id": "1",
		"nombre_plan": "Coenergía",
		"codigo": "40404",
		"cuenta_mayor": "COSTOS",
		"subcuenta": "Gastos administrativos",
		"registro": "Jornadas"
	},
	{
		"unidad_productiva_id": "1",
		"nombre_plan": "Coenergía",
		"codigo": "40405",
		"cuenta_mayor": "COSTOS",
		"subcuenta": "Gastos administrativos",
		"registro": "Movilización"
	},
	{
		"unidad_productiva_id": "1",
		"nombre_plan": "Coenergía",
		"codigo": "40406",
		"cuenta_mayor": "COSTOS",
		"subcuenta": "Gastos administrativos",
		"registro": "Publicidad"
	},
	{
		"unidad_productiva_id": "1",
		"nombre_plan": "Coenergía",
		"codigo": "40407",
		"cuenta_mayor": "COSTOS",
		"subcuenta": "Gastos administrativos",
		"registro": "Eventos internos"
	},
	{
		"unidad_productiva_id": "1",
		"nombre_plan": "Coenergía",
		"codigo": "40408",
		"cuenta_mayor": "COSTOS",
		"subcuenta": "Gastos administrativos",
		"registro": "Otros gastos administración"
	},
	{
		"unidad_productiva_id": "1",
		"nombre_plan": "Coenergía",
		"codigo": "40500",
		"cuenta_mayor": "COSTOS",
		"subcuenta": "Gastos generales"
	},
	{
		"unidad_productiva_id": "1",
		"nombre_plan": "Coenergía",
		"codigo": "40501",
		"cuenta_mayor": "COSTOS",
		"subcuenta": "Gastos generales",
		"registro": "Arriendo"
	},
	{
		"unidad_productiva_id": "1",
		"nombre_plan": "Coenergía",
		"codigo": "40502",
		"cuenta_mayor": "COSTOS",
		"subcuenta": "Gastos generales",
		"registro": "Telefonía fija"
	},
	{
		"unidad_productiva_id": "1",
		"nombre_plan": "Coenergía",
		"codigo": "40503",
		"cuenta_mayor": "COSTOS",
		"subcuenta": "Gastos generales",
		"registro": "Telefonía móvil"
	},
	{
		"unidad_productiva_id": "1",
		"nombre_plan": "Coenergía",
		"codigo": "40504",
		"cuenta_mayor": "COSTOS",
		"subcuenta": "Gastos generales",
		"registro": "Luz"
	},
	{
		"unidad_productiva_id": "1",
		"nombre_plan": "Coenergía",
		"codigo": "40505",
		"cuenta_mayor": "COSTOS",
		"subcuenta": "Gastos generales",
		"registro": "Agua"
	},
	{
		"unidad_productiva_id": "1",
		"nombre_plan": "Coenergía",
		"codigo": "40506",
		"cuenta_mayor": "COSTOS",
		"subcuenta": "Gastos generales",
		"registro": "Gas"
	},
	{
		"unidad_productiva_id": "1",
		"nombre_plan": "Coenergía",
		"codigo": "40507",
		"cuenta_mayor": "COSTOS",
		"subcuenta": "Gastos generales",
		"registro": "Contabilidad"
	},
	{
		"unidad_productiva_id": "1",
		"nombre_plan": "Coenergía",
		"codigo": "40508",
		"cuenta_mayor": "COSTOS",
		"subcuenta": "Gastos generales",
		"registro": "Comision cuenta corriente"
	},
	{
		"unidad_productiva_id": "1",
		"nombre_plan": "Coenergía",
		"codigo": "40509",
		"cuenta_mayor": "COSTOS",
		"subcuenta": "Gastos generales",
		"registro": "Cuotas trasol"
	},
	{
		"unidad_productiva_id": "1",
		"nombre_plan": "Coenergía",
		"codigo": "40510",
		"cuenta_mayor": "COSTOS",
		"subcuenta": "Gastos generales",
		"registro": "Otros gastos generales"
	},
	{
		"unidad_productiva_id": "1",
		"nombre_plan": "Coenergía",
		"codigo": "40600",
		"cuenta_mayor": "COSTOS",
		"subcuenta": "Informatica"
	},
	{
		"unidad_productiva_id": "1",
		"nombre_plan": "Coenergía",
		"codigo": "40601",
		"cuenta_mayor": "COSTOS",
		"subcuenta": "Informatica",
		"registro": "Equipos"
	},
	{
		"unidad_productiva_id": "1",
		"nombre_plan": "Coenergía",
		"codigo": "40602",
		"cuenta_mayor": "COSTOS",
		"subcuenta": "Informatica",
		"registro": "Software"
	},
	{
		"unidad_productiva_id": "1",
		"nombre_plan": "Coenergía",
		"codigo": "40603",
		"cuenta_mayor": "COSTOS",
		"subcuenta": "Informatica",
		"registro": "Pagina web"
	},
	{
		"unidad_productiva_id": "1",
		"nombre_plan": "Coenergía",
		"codigo": "40700",
		"cuenta_mayor": "COSTOS",
		"subcuenta": "Gastos vehículo"
	},
	{
		"unidad_productiva_id": "1",
		"nombre_plan": "Coenergía",
		"codigo": "40701",
		"cuenta_mayor": "COSTOS",
		"subcuenta": "Gastos vehículo",
		"registro": "Bencina"
	},
	{
		"unidad_productiva_id": "1",
		"nombre_plan": "Coenergía",
		"codigo": "40702",
		"cuenta_mayor": "COSTOS",
		"subcuenta": "Gastos vehículo",
		"registro": "Tags"
	},
	{
		"unidad_productiva_id": "1",
		"nombre_plan": "Coenergía",
		"codigo": "40703",
		"cuenta_mayor": "COSTOS",
		"subcuenta": "Gastos vehículo",
		"registro": "Mantención"
	},
	{
		"unidad_productiva_id": "1",
		"nombre_plan": "Coenergía",
		"codigo": "40704",
		"cuenta_mayor": "COSTOS",
		"subcuenta": "Gastos vehículo",
		"registro": "Seguros"
	},
	{
		"unidad_productiva_id": "1",
		"nombre_plan": "Coenergía",
		"codigo": "40705",
		"cuenta_mayor": "COSTOS",
		"subcuenta": "Gastos vehículo",
		"registro": "Permisos"
	},
	{
		"unidad_productiva_id": "1",
		"nombre_plan": "Coenergía",
		"codigo": "40706",
		"cuenta_mayor": "COSTOS",
		"subcuenta": "Gastos vehículo",
		"registro": "Estacionamiento"
	},
	{
		"unidad_productiva_id": "1",
		"nombre_plan": "Coenergía",
		"codigo": "40707",
		"cuenta_mayor": "COSTOS",
		"subcuenta": "Gastos vehículo",
		"registro": "Otros gastos vehículo"
	},
	{
		"unidad_productiva_id": "1",
		"nombre_plan": "Coenergía",
		"codigo": "40800",
		"cuenta_mayor": "COSTOS",
		"subcuenta": "Medios productivos"
	},
	{
		"unidad_productiva_id": "1",
		"nombre_plan": "Coenergía",
		"codigo": "40801",
		"cuenta_mayor": "COSTOS",
		"subcuenta": "Medios productivos",
		"registro": "Herramientas pequeñas"
	},
	{
		"unidad_productiva_id": "1",
		"nombre_plan": "Coenergía",
		"codigo": "40802",
		"cuenta_mayor": "COSTOS",
		"subcuenta": "Medios productivos",
		"registro": "Depreciación herramientas eléctricas"
	},
	{
		"unidad_productiva_id": "1",
		"nombre_plan": "Coenergía",
		"codigo": "40803",
		"cuenta_mayor": "COSTOS",
		"subcuenta": "Medios productivos",
		"registro": "Otros medios productivos"
	},
	{
		"unidad_productiva_id": "1",
		"nombre_plan": "Coenergía",
		"codigo": "40900",
		"cuenta_mayor": "COSTOS",
		"subcuenta": "Gastos financieros"
	},
	{
		"unidad_productiva_id": "1",
		"nombre_plan": "Coenergía",
		"codigo": "40901",
		"cuenta_mayor": "COSTOS",
		"subcuenta": "Gastos financieros",
		"registro": "Gastos financieros"
	},
	{
		"unidad_productiva_id": "1",
		"nombre_plan": "Coenergía",
		"codigo": "41000",
		"cuenta_mayor": "COSTOS",
		"subcuenta": "Otros costos"
	},
	{
		"unidad_productiva_id": "1",
		"nombre_plan": "Coenergía",
		"codigo": "41001",
		"cuenta_mayor": "COSTOS",
		"subcuenta": "Otros costos",
		"registro": "Descuadre caja"
	},
	{
		"unidad_productiva_id": "1",
		"nombre_plan": "Coenergía",
		"codigo": "41002",
		"cuenta_mayor": "COSTOS",
		"subcuenta": "Otros costos",
		"registro": "Otros impuestos (ila"
	},
	{
		"unidad_productiva_id": "1",
		"nombre_plan": "Coenergía",
		"codigo": "50000",
		"cuenta_mayor": "INGRESOS"
	},
	{
		"unidad_productiva_id": "1",
		"nombre_plan": "Coenergía",
		"codigo": "50100",
		"cuenta_mayor": "INGRESOS",
		"subcuenta": "Ingresos"
	},
	{
		"unidad_productiva_id": "1",
		"nombre_plan": "Coenergía",
		"codigo": "50101",
		"cuenta_mayor": "INGRESOS",
		"subcuenta": "Ingresos",
		"registro": "Ingresos"
	},
	{
		"unidad_productiva_id": "1",
		"nombre_plan": "Coenergía",
		"codigo": "50200",
		"cuenta_mayor": "INGRESOS",
		"subcuenta": "Otros Ingresos"
	},
	{
		"unidad_productiva_id": "1",
		"nombre_plan": "Coenergía",
		"codigo": "50201",
		"cuenta_mayor": "INGRESOS",
		"subcuenta": "Otros Ingresos",
		"registro": "Otros Ingresos"
	}
]