[
	{
		"id": "1",
		"unidad_productiva_id": "1",
		"nombre_presentacion": "Santander",
		"banco_id": "9"
	},
	{
		"id": "2",
		"unidad_productiva_id": "1",
		"nombre_presentacion": "Falabella",
		"banco_id": "12"
	}
]