[
	{
		"concepto": "estado_persona",
		"objeto": "[\"Activo\", \"Inactivo\"]"
	},
	{
		"concepto": "estado_cliente",
		"objeto": "[\"Activo\", \"Inactivo\"]"
	},
	{
		"concepto": "estado_cotizacion",
		"objeto": "[\"Aprobada\", \"Rechazada\"]"
	},
	{
		"concepto": "estado_contacto",
		"objeto": "[\"Activo\", \"Inactivo\"]"
	},
	{
		"concepto": "estado_centro_costo",
		"objeto": "[\"Abierto\", \"Cerrado\"]"
	}
]