[
    {
        "id": 1,
        "nombre_presentacion": "Abierto"
    },
    {
        "id": 2,
        "nombre_presentacion": "Cerrado",
        "visible": false
    },
    {
        "id": 3,
        "nombre_presentacion": "Cancelado",
        "visible": false
    }
]