[
    {
        "id": 1,
        "nombre_presentacion": "Activo"
    },
    {
        "id": 2,
        "nombre_presentacion": "Frecuente"
    },
    {
        "id": 3,
        "nombre_presentacion": "Inactivo",
        "visible": false
    }
]