[
  {
    "unidad_productiva_id": 1,
    "tipo": "haber",
    "nombre_presentacion": "Ingreso Ley Cooperativas",
    "imponible": false,
    "monto": 0
  },
  {
    "unidad_productiva_id": 1,
    "tipo": "haber",
    "nombre_presentacion": "Bono alimenación",
    "imponible": false,
    "monto": 62500
  },
  {
    "unidad_productiva_id": 1,
    "tipo": "haber",
    "nombre_presentacion": "Bono desgaste herramientas",
    "imponible": false,
    "monto": 0
  },
  {
    "unidad_productiva_id": 1,
    "tipo": "haber",
    "nombre_presentacion": "Bono movilización",
    "imponible": false,
    "monto": 50000
  },
  {
    "unidad_productiva_id": 1,
    "tipo": "haber",
    "nombre_presentacion": "Sueldo base",
    "imponible": true,
    "monto": 292000
  },
  {
    "unidad_productiva_id": 1,
    "tipo": "haber",
    "nombre_presentacion": "Gratificación",
    "imponible": true,
    "monto": 0
  },
  {
    "unidad_productiva_id": 1,
    "tipo": "haber",
    "nombre_presentacion": "Retiro anticipado de excedentes",
    "imponible": true,
    "monto": 98000
  },
  {
    "unidad_productiva_id": 1,
    "tipo": "haber",
    "nombre_presentacion": "Horas extra",
    "imponible": true,
    "monto": 0
  },
  {
    "unidad_productiva_id": 1,
    "tipo": "haber",
    "nombre_presentacion": "Bono producción",
    "imponible": true,
    "monto": 0
  },
  {
    "unidad_productiva_id": 1,
    "tipo": "haber",
    "nombre_presentacion": "Retiro anticipado (socios)",
    "imponible": true,
    "monto": 0
  },
  {
    "unidad_productiva_id": 1,
    "tipo": "descuento",
    "nombre_presentacion": "AFP",
    "imponible": false,
    "monto": 0
  },
  {
    "unidad_productiva_id": 1,
    "tipo": "descuento",
    "nombre_presentacion": "Salud",
    "imponible": true,
    "monto": 0
  },
  {
    "unidad_productiva_id": 1,
    "tipo": "descuento",
    "nombre_presentacion": "Cesantía",
    "imponible": true,
    "monto": 0
  },
  {
    "unidad_productiva_id": 1,
    "tipo": "descuento",
    "nombre_presentacion": "Impuesto 2da categoría",
    "imponible": true,
    "monto": 0
  },
  {
    "unidad_productiva_id": 1,
    "tipo": "descuento",
    "nombre_presentacion": "Adicional salud",
    "imponible": false,
    "monto": 0
  },
  {
    "unidad_productiva_id": 1,
    "tipo": "descuento",
    "nombre_presentacion": "Teléfono",
    "imponible": false,
    "monto": 0
  },
  {
    "unidad_productiva_id": 1,
    "tipo": "descuento",
    "nombre_presentacion": "Indumentaria",
    "imponible": false,
    "monto": 0
  },
  {
    "unidad_productiva_id": 1,
    "tipo": "descuento",
    "nombre_presentacion": "Anticipos (canasta)",
    "imponible": false,
    "monto": 0
  },
  {
    "unidad_productiva_id": 1,
    "tipo": "descuento",
    "nombre_presentacion": "Anticipos",
    "imponible": false,
    "monto": 0
  },
  {
    "unidad_productiva_id": 1,
    "tipo": "descuento",
    "nombre_presentacion": "Préstamos",
    "imponible": false,
    "monto": 0
  },
  {
    "unidad_productiva_id": 1,
    "tipo": "descuento",
    "nombre_presentacion": "Otros",
    "imponible": false,
    "monto": 0
  }
]