[
	{
		"id": "1",
		"fecha_consulta": "10-01-2017",
		"nombre_presentacion": "Octubre",
		"periodo_mes": "10",
		"periodo_ano": "2017",
		"uf": "26634.90",
		"utm": "46786",
		"uta": "561432",
		"renta_minima_normal": "270000",
		"renta_minima_especial": "201561",
		"renta_minima_no_remuneracional": "174166",
		"apv_tope_mensual": "1331745",
		"apv_tope_anual": "15980940",
		"deposito_convenido": "23971410",
		"afc_indefinido_empleador": "0.024",
		"afc_indefinido_trabajador": "0.006",
		"afc_fijo_empleador": "0.03",
		"afc_plazo11_empleador": "0.08",
		"afp": "\"afp\": {\"1\": {\"dependiente\": {\"afp\": 0.1144,\"sis\": 0.0141},\"independiente\": {\"afp\": 0.1285}},\"2\": {\"dependiente\": {\"afp\": 0.1148,\"sis\": 0.0141},\"independiente\": {\"afp\": 0.1289}},\"3\": {\"dependiente\": {\"afp\": 0.1127,\"sis\": 0.0141},\"independiente\": {\"afp\": 0.1268}},\"4\": {\"dependiente\": {\"afp\": 0.1041,\"sis\": 0.0141},\"independiente\": {\"afp\": 0.1182}},\"5\": {\"dependiente\": {\"afp\": 0.1145,\"sis\": 0.0141},\"independiente\": {\"afp\": 0.1286}},\"6\": {\"dependiente\": {\"afp\": 0.1077,\"sis\": 0.0141},\"independiente\": {\"afp\": 0.1218}}}",
		"asignacion_familiar": "{\"a\": {\"monto\": 11091,\"minimo\": 0,\"maximo\": 283312},\"b\": {\"monto\": 6806,\"minimo\": 283313,\"maximo\": 413808},\"c\": {\"monto\": 2151,\"minimo\": 413809,\"maximo\": 645400},\"d\": {\"monto\": 0,\"minimo\": 645401,\"maximo\": 0}}",
		"trabajos_pesados": "{\"trabajo_pesado\": {\"empleador\": 0.02,\"trabajador\": 0.02},\"trabajo_menos_pesado\": {\"empleador\": 0.01,\"trabajador\": 0.01}}"
	}
]