[
	{
		"id": "1",
		"nombre_presentacion": "Capital"
	},
	{
		"id": "2",
		"nombre_presentacion": "Cuprum"
	},
	{
		"id": "3",
		"nombre_presentacion": "Habitat"
	},
	{
		"id": "4",
		"nombre_presentacion": "Planvital"
	},
	{
		"id": "5",
		"nombre_presentacion": "Provida"
	},
	{
		"id": "6",
		"nombre_presentacion": "Modelo"
	}
]