[
	{
		"unidad_productiva_id": "1",
		"mes": "1",
		"ano": "2018",
		"nombre_presentacion": "Enero"
	},
	{
		"unidad_productiva_id": "1",
		"mes": "2",
		"ano": "2018",
		"nombre_presentacion": "Febrero"
	},
	{
		"unidad_productiva_id": "1",
		"mes": "3",
		"ano": "2018",
		"nombre_presentacion": "Marzo"
	},
	{
		"unidad_productiva_id": "1",
		"mes": "4",
		"ano": "2018",
		"nombre_presentacion": "Abril"
	},
	{
		"unidad_productiva_id": "1",
		"mes": "5",
		"ano": "2018",
		"nombre_presentacion": "Mayo"
	},
	{
		"unidad_productiva_id": "1",
		"mes": "6",
		"ano": "2018",
		"nombre_presentacion": "Junio"
	},
	{
		"unidad_productiva_id": "1",
		"mes": "7",
		"ano": "2018",
		"nombre_presentacion": "Julio"
	},
	{
		"unidad_productiva_id": "1",
		"mes": "8",
		"ano": "2018",
		"nombre_presentacion": "Agosto"
	},
	{
		"unidad_productiva_id": "1",
		"mes": "9",
		"ano": "2018",
		"nombre_presentacion": "Septiembre"
	},
	{
		"unidad_productiva_id": "1",
		"mes": "10",
		"ano": "2018",
		"nombre_presentacion": "Octubre"
	},
	{
		"unidad_productiva_id": "1",
		"mes": "11",
		"ano": "2018",
		"nombre_presentacion": "Noviembre"
	},
	{
		"unidad_productiva_id": "1",
		"mes": "12",
		"ano": "2018",
		"nombre_presentacion": "Diciembre"
	}
]