[
  {
    "unidad_productiva_id": "1",
    "centro_costo_id": 0
  },
  {
    "unidad_productiva_id": "1",
    "centro_costo_id": 1
  },
  {
    "unidad_productiva_id": "1",
    "centro_costo_id": 2
  },
  {
    "unidad_productiva_id": "1",
    "centro_costo_id": 3
  },
  {
    "unidad_productiva_id": "1",
    "centro_costo_id": 4
  },
  {
    "unidad_productiva_id": "1",
    "centro_costo_id": 5
  },
  {
    "unidad_productiva_id": "1",
    "centro_costo_id": 6
  },
  {
    "unidad_productiva_id": "1",
    "centro_costo_id": 7
  },
  {
    "unidad_productiva_id": "1",
    "centro_costo_id": 8
  },
  {
    "unidad_productiva_id": "1",
    "centro_costo_id": 9
  },
  {
    "unidad_productiva_id": "1",
    "centro_costo_id": 10
  },
  {
    "unidad_productiva_id": "1",
    "centro_costo_id": 11
  },
  {
    "unidad_productiva_id": "1",
    "centro_costo_id": 12
  },
  {
    "unidad_productiva_id": "1",
    "centro_costo_id": 13
  },
  {
    "unidad_productiva_id": "1",
    "valor_hora_persona": "3237",
    "utilidad_provision": "3227643",
    "neto": "3227643",
    "bruto": "3227643",
    "centro_costo_id": 14
  },
  {
    "unidad_productiva_id": "1",
    "valor_hora_persona": "3237",
    "centro_costo_id": 15
  },
  {
    "unidad_productiva_id": "1",
    "valor_hora_persona": "3237",
    "centro_costo_id": 16
  },
  {
    "unidad_productiva_id": "1",
    "centro_costo_id": 17
  },
  {
    "unidad_productiva_id": "1",
    "neto": "336000",
    "bruto": "336000",
    "centro_costo_id": 18
  },
  {
    "unidad_productiva_id": "1",
    "neto": "483000",
    "bruto": "574770",
    "centro_costo_id": 19
  },
  {
    "unidad_productiva_id": "1",
    "neto": "3308900",
    "bruto": "3937591",
    "centro_costo_id": 20
  },
  {
    "unidad_productiva_id": "1",
    "neto": "586717",
    "bruto": "586717",
    "centro_costo_id": 21
  },
  {
    "unidad_productiva_id": "1",
    "neto": "629006",
    "bruto": "748517.14",
    "centro_costo_id": 22
  },
  {
    "unidad_productiva_id": "1",
    "neto": "250700",
    "bruto": "298333",
    "centro_costo_id": 23
  },
  {
    "unidad_productiva_id": "1",
    "neto": "143750",
    "bruto": "171062.5",
    "centro_costo_id": 24
  },
  {
    "unidad_productiva_id": "1",
    "neto": "1720000",
    "bruto": "1720000",
    "centro_costo_id": 25
  },
  {
    "unidad_productiva_id": "1",
    "neto": "10987",
    "bruto": "13074.529999999999",
    "centro_costo_id": 26
  },
  {
    "unidad_productiva_id": "1",
    "neto": "33667",
    "bruto": "40063.729999999996",
    "centro_costo_id": 27
  },
  {
    "unidad_productiva_id": "1",
    "neto": "243800",
    "bruto": "243800",
    "centro_costo_id": 28
  },
  {
    "unidad_productiva_id": "1",
    "neto": "1130296",
    "bruto": "1345052.24",
    "centro_costo_id": 29
  },
  {
    "unidad_productiva_id": "1",
    "neto": "129807",
    "bruto": "154470.33",
    "centro_costo_id": 30
  },
  {
    "unidad_productiva_id": "1",
    "neto": "402603",
    "bruto": "479097.57",
    "centro_costo_id": 31
  },
  {
    "unidad_productiva_id": "1",
    "neto": "538966",
    "bruto": "538966",
    "centro_costo_id": 32
  },
  {
    "unidad_productiva_id": "1",
    "horas_persona": "36",
    "valor_hora_persona": "3360",
    "dias_personas_total": "4",
    "presupuesto_mano_obra": "120960",
    "presupuesto_viaticos": "3360",
    "presupuesto_Total": "124320",
    "presupuesto_cip": "32400",
    "utilidad_provision": "327280",
    "neto": "484000",
    "bruto": "575960",
    "centro_costo_id": 33
  },
  {
    "unidad_productiva_id": "1",
    "neto": "440000",
    "bruto": "523600",
    "centro_costo_id": 34
  },
  {
    "unidad_productiva_id": "1",
    "neto": "579164",
    "bruto": "689205.1599999999",
    "centro_costo_id": 35
  },
  {
    "unidad_productiva_id": "1",
    "neto": "240000",
    "bruto": "285600",
    "centro_costo_id": 36
  },
  {
    "unidad_productiva_id": "1",
    "neto": "249800",
    "bruto": "297262",
    "centro_costo_id": 37
  },
  {
    "unidad_productiva_id": "1",
    "neto": "210713",
    "bruto": "250748.47",
    "centro_costo_id": 38
  },
  {
    "unidad_productiva_id": "1",
    "horas_persona": "288",
    "valor_hora_persona": "2920",
    "dias_personas_total": "32",
    "presupuesto_mano_obra": "840960",
    "presupuesto_materiales": "1923576",
    "presupuesto_viaticos": "2920",
    "presupuesto_Total": "2767456",
    "presupuesto_cip": "259200",
    "utilidad_provision": "1761882.4921119995",
    "neto": "4788538.492112",
    "bruto": "5698360.805613279",
    "centro_costo_id": 39
  },
  {
    "unidad_productiva_id": "1",
    "horas_persona": "18",
    "valor_hora_persona": "2889",
    "dias_personas_total": "2",
    "presupuesto_mano_obra": "52002",
    "presupuesto_Total": "52002",
    "presupuesto_cip": "158400",
    "utilidad_provision": "15123",
    "neto": "225525",
    "bruto": "225525",
    "centro_costo_id": 40
  },
  {
    "unidad_productiva_id": "1",
    "horas_persona": "72",
    "valor_hora_persona": "2889",
    "dias_personas_total": "8",
    "presupuesto_mano_obra": "208008",
    "presupuesto_viaticos": "2888.888889",
    "presupuesto_Total": "210896.888889",
    "presupuesto_cip": "633600",
    "utilidad_provision": "-448496.888889",
    "neto": "396000",
    "bruto": "396000",
    "centro_costo_id": 41
  },
  {
    "unidad_productiva_id": "1",
    "horas_persona": "54",
    "valor_hora_persona": "3333",
    "dias_personas_total": "6",
    "presupuesto_mano_obra": "179982",
    "presupuesto_materiales": "161375",
    "presupuestos_traslados": "90000",
    "presupuesto_viaticos": "3333.333333",
    "presupuesto_hospedajes": "90000",
    "presupuesto_Total": "524690.3333330001",
    "presupuesto_cip": "48600",
    "utilidad_provision": "201709.66666699992",
    "neto": "775000",
    "bruto": "922250",
    "centro_costo_id": 42
  },
  {
    "unidad_productiva_id": "1",
    "horas_persona": "144",
    "valor_hora_persona": "2889",
    "dias_personas_total": "16",
    "presupuesto_mano_obra": "416016",
    "presupuesto_materiales": "363120",
    "presupuesto_viaticos": "2888.888889",
    "presupuesto_Total": "782024.888889",
    "presupuesto_cip": "129600",
    "utilidad_provision": "-137675.88888900005",
    "neto": "773949",
    "bruto": "773949",
    "centro_costo_id": 43
  },
  {
    "unidad_productiva_id": "1",
    "horas_persona": "108",
    "valor_hora_persona": "3333",
    "dias_personas_total": "12",
    "presupuesto_mano_obra": "359964",
    "presupuestos_traslados": "100000",
    "presupuesto_viaticos": "3333",
    "presupuesto_hospedajes": "100000",
    "presupuesto_Total": "563297",
    "presupuesto_cip": "97200",
    "utilidad_provision": "2271723",
    "neto": "2932220",
    "bruto": "3489341.8",
    "centro_costo_id": 44
  },
  {
    "unidad_productiva_id": "1",
    "horas_persona": "90",
    "valor_hora_persona": "3333",
    "dias_personas_total": "10",
    "presupuesto_mano_obra": "299970",
    "presupuestos_traslados": "100000",
    "presupuesto_viaticos": "3333",
    "presupuesto_hospedajes": "100000",
    "presupuesto_Total": "503303",
    "presupuesto_cip": "81000",
    "utilidad_provision": "2517917",
    "neto": "3102220",
    "bruto": "3691641.8",
    "centro_costo_id": 45
  },
  {
    "unidad_productiva_id": "1",
    "horas_persona": "18",
    "valor_hora_persona": "3467",
    "dias_personas_total": "2",
    "presupuesto_mano_obra": "62406",
    "presupuesto_viaticos": "3466.8",
    "presupuesto_Total": "65872.8",
    "presupuesto_cip": "16200",
    "utilidad_provision": "178327.2",
    "neto": "260400",
    "bruto": "260400",
    "centro_costo_id": 46
  },
  {
    "unidad_productiva_id": "1",
    "horas_persona": "360",
    "valor_hora_persona": "2889",
    "dias_personas_total": "40",
    "presupuesto_mano_obra": "1040040",
    "presupuesto_materiales": "747300",
    "presupuesto_viaticos": "2888.888889",
    "presupuesto_Total": "1790228.888889",
    "presupuesto_cip": "324000",
    "utilidad_provision": "489144.11111099995",
    "neto": "2603373",
    "bruto": "3098013.8699999996",
    "centro_costo_id": 47
  },
  {
    "unidad_productiva_id": "1",
    "horas_persona": "18",
    "valor_hora_persona": "3333",
    "dias_personas_total": "2",
    "presupuesto_mano_obra": "59994",
    "presupuesto_materiales": "125000",
    "presupuestos_traslados": "30000",
    "presupuesto_viaticos": "3333",
    "presupuesto_hospedajes": "30000",
    "presupuesto_Total": "248327",
    "presupuesto_cip": "16200",
    "utilidad_provision": "80473",
    "neto": "345000",
    "bruto": "410550",
    "centro_costo_id": 48
  },
  {
    "unidad_productiva_id": "1",
    "neto": "837000",
    "bruto": "837000",
    "centro_costo_id": 49
  },
  {
    "unidad_productiva_id": "1",
    "horas_persona": "580",
    "valor_hora_persona": "2889",
    "dias_personas_total": "64.44444444444444",
    "presupuesto_mano_obra": "1675620",
    "presupuesto_materiales": "1278546",
    "presupuesto_viaticos": "2889",
    "presupuesto_Total": "2957055",
    "presupuesto_cip": "522000",
    "utilidad_provision": "1825635",
    "neto": "5304690",
    "bruto": "5304690",
    "centro_costo_id": 50
  },
  {
    "unidad_productiva_id": "1",
    "horas_persona": "90",
    "valor_hora_persona": "2889",
    "dias_personas_total": "10",
    "presupuesto_mano_obra": "260010",
    "presupuesto_materiales": "150000",
    "presupuesto_viaticos": "2888.888889",
    "presupuesto_Total": "412898.888889",
    "presupuesto_cip": "81000",
    "utilidad_provision": "163191.111111",
    "neto": "657090",
    "bruto": "657090",
    "centro_costo_id": 51
  },
  {
    "unidad_productiva_id": "1",
    "horas_persona": "360",
    "valor_hora_persona": "2889",
    "dias_personas_total": "40",
    "presupuesto_mano_obra": "1040040",
    "presupuesto_materiales": "850000",
    "presupuesto_viaticos": "2880",
    "presupuesto_Total": "1892920",
    "presupuesto_cip": "324000",
    "utilidad_provision": "335936",
    "neto": "2552856",
    "bruto": "3037898.6399999997",
    "centro_costo_id": 52
  },
  {
    "unidad_productiva_id": "1",
    "neto": "95000",
    "bruto": "113050",
    "centro_costo_id": 53
  },
  {
    "unidad_productiva_id": "1",
    "neto": "113700",
    "bruto": "135303",
    "centro_costo_id": 54
  },
  {
    "unidad_productiva_id": "1",
    "horas_persona": "36",
    "valor_hora_persona": "2889",
    "dias_personas_total": "4",
    "presupuesto_mano_obra": "104004",
    "presupuesto_viaticos": "2889",
    "presupuesto_Total": "106893",
    "presupuesto_cip": "32400",
    "utilidad_provision": "84807",
    "neto": "224100",
    "bruto": "224100",
    "centro_costo_id": 55
  },
  {
    "unidad_productiva_id": "1",
    "horas_persona": "54",
    "valor_hora_persona": "2889",
    "dias_personas_total": "6",
    "presupuesto_mano_obra": "156006",
    "presupuesto_materiales": "40000",
    "presupuesto_viaticos": "2889",
    "presupuesto_Total": "198895",
    "presupuesto_cip": "48600",
    "utilidad_provision": "52505",
    "neto": "300000",
    "bruto": "357000",
    "centro_costo_id": 56
  },
  {
    "unidad_productiva_id": "1",
    "neto": "75000",
    "bruto": "75000",
    "centro_costo_id": 57
  },
  {
    "unidad_productiva_id": "1",
    "valor_hora_persona": "3467",
    "presupuesto_viaticos": "3466.8",
    "presupuesto_Total": "3466.8",
    "neto": "430000",
    "bruto": "511700",
    "centro_costo_id": 58
  },
  {
    "unidad_productiva_id": "1",
    "horas_persona": "162",
    "valor_hora_persona": "3467",
    "dias_personas_total": "18",
    "presupuesto_mano_obra": "561654",
    "presupuesto_materiales": "1500000",
    "presupuestos_traslados": "300000",
    "presupuesto_viaticos": "3466.8",
    "presupuesto_hospedajes": "300000",
    "presupuesto_Total": "2665120.8",
    "presupuesto_cip": "145800",
    "utilidad_provision": "2098679.2",
    "neto": "4909600",
    "bruto": "5842424",
    "centro_costo_id": 59
  },
  {
    "unidad_productiva_id": "1",
    "neto": "476330",
    "bruto": "476330",
    "centro_costo_id": 60
  },
  {
    "unidad_productiva_id": "1",
    "valor_hora_persona": "3467",
    "presupuesto_viaticos": "3466.8",
    "presupuesto_Total": "3466.8",
    "neto": "2114881",
    "bruto": "2516708.3899999997",
    "centro_costo_id": 61
  },
  {
    "unidad_productiva_id": "1",
    "horas_persona": "540",
    "valor_hora_persona": "2889",
    "dias_personas_total": "60",
    "presupuesto_mano_obra": "1560060",
    "presupuesto_materiales": "1500000",
    "presupuesto_viaticos": "2889",
    "presupuesto_Total": "3062949",
    "presupuesto_cip": "486000",
    "utilidad_provision": "1522647",
    "neto": "5071596",
    "bruto": "5071596",
    "centro_costo_id": 62
  },
  {
    "unidad_productiva_id": "1",
    "horas_persona": "18",
    "valor_hora_persona": "2889",
    "dias_personas_total": "2",
    "presupuesto_mano_obra": "52002",
    "presupuesto_Total": "52002",
    "presupuesto_cip": "16200",
    "utilidad_provision": "64113",
    "neto": "132315",
    "bruto": "157454.85",
    "centro_costo_id": 63
  },
  {
    "unidad_productiva_id": "1",
    "presupuesto_materiales": "70617",
    "presupuesto_Total": "70617",
    "neto": "70617",
    "bruto": "84034.23",
    "centro_costo_id": 64
  },
  {
    "unidad_productiva_id": "1",
    "neto": "889180",
    "bruto": "1058124.2",
    "centro_costo_id": 65
  },
  {
    "unidad_productiva_id": "1",
    "neto": "105000",
    "bruto": "124950",
    "centro_costo_id": 66
  },
  {
    "unidad_productiva_id": "1",
    "neto": "49800",
    "bruto": "49800",
    "centro_costo_id": 67
  },
  {
    "unidad_productiva_id": "1",
    "horas_persona": "121.5",
    "valor_hora_persona": "3467",
    "dias_personas_total": "13.5",
    "presupuesto_mano_obra": "421240.5",
    "presupuesto_viaticos": "3466.8",
    "presupuesto_Total": "424707.3",
    "presupuesto_cip": "109350",
    "utilidad_provision": "309137.7",
    "neto": "843195",
    "bruto": "843195",
    "centro_costo_id": 68
  },
  {
    "unidad_productiva_id": "1",
    "horas_persona": "54",
    "valor_hora_persona": "2889",
    "dias_personas_total": "6",
    "presupuesto_mano_obra": "156006",
    "presupuesto_viaticos": "2889",
    "presupuesto_Total": "158895",
    "presupuesto_cip": "475200",
    "utilidad_provision": "49005",
    "neto": "683100",
    "bruto": "683100",
    "centro_costo_id": 69
  },
  {
    "unidad_productiva_id": "1",
    "neto": "255000",
    "bruto": "255000",
    "centro_costo_id": 70
  },
  {
    "unidad_productiva_id": "1",
    "neto": "276925",
    "bruto": "276925",
    "centro_costo_id": 71
  },
  {
    "unidad_productiva_id": "1",
    "horas_persona": "72",
    "valor_hora_persona": "3467",
    "dias_personas_total": "8",
    "presupuesto_mano_obra": "249624",
    "presupuesto_viaticos": "3466.8",
    "presupuesto_Total": "253090.8",
    "presupuesto_cip": "633600",
    "utilidad_provision": "158902.2",
    "neto": "1045593",
    "bruto": "1045593",
    "centro_costo_id": 72
  },
  {
    "unidad_productiva_id": "1",
    "neto": "150000",
    "bruto": "178500",
    "centro_costo_id": 73
  },
  {
    "unidad_productiva_id": "1",
    "neto": "373528",
    "bruto": "444498.32",
    "centro_costo_id": 74
  },
  {
    "unidad_productiva_id": "1",
    "neto": "3323957",
    "bruto": "3955508.8299999996",
    "centro_costo_id": 75
  },
  {
    "unidad_productiva_id": "1",
    "neto": "2420000",
    "bruto": "2879800",
    "centro_costo_id": 76
  },
  {
    "unidad_productiva_id": "1",
    "horas_persona": "90",
    "valor_hora_persona": "2889",
    "dias_personas_total": "10",
    "presupuesto_mano_obra": "260010",
    "presupuesto_viaticos": "2889",
    "presupuesto_Total": "262899",
    "presupuesto_cip": "81000",
    "utilidad_provision": "-39899",
    "neto": "304000",
    "bruto": "304000",
    "centro_costo_id": 77
  },
  {
    "unidad_productiva_id": "1",
    "neto": "338445",
    "bruto": "338445",
    "centro_costo_id": 78
  },
  {
    "unidad_productiva_id": "1",
    "horas_persona": "432",
    "valor_hora_persona": "2889",
    "dias_personas_total": "48",
    "presupuesto_mano_obra": "1248048",
    "presupuesto_materiales": "1000000",
    "presupuesto_viaticos": "2888.888889",
    "presupuesto_Total": "2250936.888889",
    "presupuesto_cip": "388800",
    "utilidad_provision": "845363.1111110002",
    "neto": "3485100",
    "bruto": "4147269",
    "centro_costo_id": 79
  },
  {
    "unidad_productiva_id": "1",
    "neto": "1450950",
    "bruto": "1450950",
    "centro_costo_id": 80
  },
  {
    "unidad_productiva_id": "1",
    "neto": "239400",
    "bruto": "239400",
    "centro_costo_id": 81
  },
  {
    "unidad_productiva_id": "1",
    "neto": "190000",
    "bruto": "190000",
    "centro_costo_id": 82
  },
  {
    "unidad_productiva_id": "1",
    "neto": "575400",
    "bruto": "684726",
    "centro_costo_id": 83
  },
  {
    "unidad_productiva_id": "1",
    "neto": "56925",
    "bruto": "56925",
    "centro_costo_id": 84
  },
  {
    "unidad_productiva_id": "1",
    "horas_persona": "9",
    "valor_hora_persona": "2889",
    "dias_personas_total": "1",
    "presupuesto_mano_obra": "26001",
    "presupuesto_materiales": "10000",
    "presupuesto_Total": "36001",
    "presupuesto_cip": "8100",
    "utilidad_provision": "29899",
    "neto": "74000",
    "bruto": "88060",
    "centro_costo_id": 85
  },
  {
    "unidad_productiva_id": "1",
    "horas_persona": "90",
    "valor_hora_persona": "2889",
    "dias_personas_total": "10",
    "presupuesto_mano_obra": "260010",
    "presupuesto_viaticos": "2889",
    "presupuesto_Total": "262899",
    "presupuesto_cip": "81000",
    "utilidad_provision": "758061",
    "neto": "1101960",
    "bruto": "1101960",
    "centro_costo_id": 86
  },
  {
    "unidad_productiva_id": "1",
    "neto": "191667",
    "bruto": "191667",
    "centro_costo_id": 87
  },
  {
    "unidad_productiva_id": "1",
    "horas_persona": "54",
    "valor_hora_persona": "3467",
    "dias_personas_total": "6",
    "presupuesto_mano_obra": "187218",
    "presupuesto_viaticos": "3466.8",
    "presupuesto_Total": "190684.8",
    "presupuesto_cip": "475200",
    "utilidad_provision": "-310984.8",
    "neto": "354900",
    "bruto": "354900",
    "centro_costo_id": 88
  },
  {
    "unidad_productiva_id": "1",
    "horas_persona": "54",
    "valor_hora_persona": "3467",
    "dias_personas_total": "6",
    "presupuesto_mano_obra": "187218",
    "presupuesto_materiales": "70000",
    "presupuesto_viaticos": "3466.8",
    "presupuesto_Total": "260684.8",
    "presupuesto_cip": "48600",
    "utilidad_provision": "55645.20000000001",
    "neto": "364930",
    "bruto": "364930",
    "centro_costo_id": 89
  },
  {
    "unidad_productiva_id": "1",
    "horas_persona": "36",
    "valor_hora_persona": "2889",
    "dias_personas_total": "4",
    "presupuesto_mano_obra": "104004",
    "presupuesto_viaticos": "2888.888889",
    "presupuesto_Total": "106892.888889",
    "presupuesto_cip": "32400",
    "utilidad_provision": "16258.111111000006",
    "neto": "155551",
    "bruto": "185105.69",
    "centro_costo_id": 90
  },
  {
    "unidad_productiva_id": "1",
    "horas_persona": "72",
    "valor_hora_persona": "3467",
    "dias_personas_total": "8",
    "presupuesto_mano_obra": "249624",
    "presupuesto_materiales": "138000",
    "presupuesto_viaticos": "3466.8",
    "presupuesto_Total": "391090.8",
    "presupuesto_cip": "64800",
    "utilidad_provision": "117549.20000000001",
    "neto": "573440",
    "bruto": "573440",
    "centro_costo_id": 91
  },
  {
    "unidad_productiva_id": "1",
    "horas_persona": "27",
    "valor_hora_persona": "2889",
    "dias_personas_total": "3",
    "presupuesto_mano_obra": "78003",
    "presupuesto_viaticos": "2889",
    "presupuesto_Total": "80892",
    "presupuesto_cip": "237600",
    "utilidad_provision": "39648",
    "neto": "358140",
    "bruto": "358140",
    "centro_costo_id": 92
  },
  {
    "unidad_productiva_id": "1",
    "horas_persona": "126",
    "valor_hora_persona": "2889",
    "dias_personas_total": "14",
    "presupuesto_mano_obra": "364014",
    "presupuesto_materiales": "250000",
    "presupuesto_viaticos": "2889",
    "presupuesto_Total": "616903",
    "presupuesto_cip": "113400",
    "utilidad_provision": "211625",
    "neto": "941928",
    "bruto": "1120894.32",
    "centro_costo_id": 93
  },
  {
    "unidad_productiva_id": "1",
    "horas_persona": "144",
    "valor_hora_persona": "2889",
    "dias_personas_total": "16",
    "presupuesto_mano_obra": "416016",
    "presupuesto_viaticos": "2889",
    "presupuesto_Total": "418905",
    "presupuesto_cip": "129600",
    "utilidad_provision": "425763",
    "neto": "974268",
    "bruto": "1159378.92",
    "centro_costo_id": 94
  },
  {
    "unidad_productiva_id": "1",
    "horas_persona": "13.5",
    "valor_hora_persona": "2889",
    "dias_personas_total": "1.5",
    "presupuesto_mano_obra": "39001.5",
    "presupuesto_viaticos": "2889",
    "presupuesto_Total": "41890.5",
    "presupuesto_cip": "118800",
    "utilidad_provision": "11809.5",
    "neto": "172500",
    "bruto": "172500",
    "centro_costo_id": 95
  },
  {
    "unidad_productiva_id": "1",
    "neto": "292000",
    "bruto": "347480",
    "centro_costo_id": 96
  },
  {
    "unidad_productiva_id": "1",
    "horas_persona": "162",
    "valor_hora_persona": "2889",
    "dias_personas_total": "18",
    "presupuesto_mano_obra": "468018",
    "presupuesto_Total": "468018",
    "presupuesto_cip": "145800",
    "utilidad_provision": "106182",
    "neto": "720000",
    "bruto": "720000",
    "centro_costo_id": 97
  },
  {
    "unidad_productiva_id": "1",
    "neto": "1482387",
    "bruto": "1764040.53",
    "centro_costo_id": 98
  },
  {
    "unidad_productiva_id": "1",
    "horas_persona": "36",
    "valor_hora_persona": "2889",
    "dias_personas_total": "4",
    "presupuesto_mano_obra": "104004",
    "presupuesto_materiales": "250000",
    "presupuesto_viaticos": "2889",
    "presupuesto_Total": "356893",
    "presupuesto_cip": "32400",
    "utilidad_provision": "148365",
    "neto": "537658",
    "bruto": "639813.02",
    "centro_costo_id": 99
  },
  {
    "unidad_productiva_id": "1",
    "horas_persona": "270",
    "valor_hora_persona": "4334",
    "dias_personas_total": "30",
    "presupuesto_mano_obra": "1170180",
    "presupuesto_materiales": "500000",
    "presupuesto_viaticos": "4333.5",
    "presupuesto_Total": "1674513.5",
    "presupuesto_cip": "243000",
    "utilidad_provision": "670806.5",
    "neto": "2588320",
    "bruto": "3080100.8",
    "centro_costo_id": 100
  },
  {
    "unidad_productiva_id": "1",
    "horas_persona": "288",
    "valor_hora_persona": "3467",
    "dias_personas_total": "32",
    "presupuesto_mano_obra": "998496",
    "presupuesto_materiales": "700000",
    "presupuesto_viaticos": "3466.8",
    "presupuesto_Total": "1701962.8",
    "presupuesto_cip": "259200",
    "utilidad_provision": "964085.2",
    "neto": "2925248",
    "bruto": "3481045.1199999996",
    "centro_costo_id": 101
  },
  {
    "unidad_productiva_id": "1",
    "horas_persona": "414",
    "valor_hora_persona": "3467",
    "dias_personas_total": "46",
    "presupuesto_mano_obra": "1435338",
    "presupuesto_materiales": "800000",
    "presupuesto_viaticos": "3466.8",
    "presupuesto_Total": "2238804.8",
    "presupuesto_cip": "372600",
    "utilidad_provision": "907846.2000000002",
    "neto": "3519251",
    "bruto": "4187908.69",
    "centro_costo_id": 102
  },
  {
    "unidad_productiva_id": "1",
    "neto": "1200000",
    "bruto": "1200000",
    "centro_costo_id": 103
  },
  {
    "unidad_productiva_id": "1",
    "neto": "900000",
    "bruto": "900000",
    "centro_costo_id": 104
  },
  {
    "unidad_productiva_id": "1",
    "neto": "420168",
    "bruto": "499999.92",
    "centro_costo_id": 105
  },
  {
    "unidad_productiva_id": "1",
    "centro_costo_id": 106
  },
  {
    "unidad_productiva_id": "1",
    "centro_costo_id": 107
  },
  {
    "unidad_productiva_id": "1",
    "centro_costo_id": 108
  },
  {
    "unidad_productiva_id": "1",
    "horas_persona": "90",
    "valor_hora_persona": "2889",
    "dias_personas_total": "10",
    "presupuesto_mano_obra": "260010",
    "presupuesto_materiales": "400000",
    "presupuesto_Total": "660010",
    "presupuesto_cip": "81000",
    "utilidad_provision": "40760",
    "neto": "781770",
    "bruto": "930306.2999999999",
    "centro_costo_id": 109
  },
  {
    "unidad_productiva_id": "1",
    "horas_persona": "54",
    "valor_hora_persona": "2889",
    "dias_personas_total": "6",
    "presupuesto_mano_obra": "156006",
    "presupuesto_Total": "156006",
    "presupuesto_cip": "48600",
    "utilidad_provision": "251394",
    "neto": "456000",
    "bruto": "456000",
    "centro_costo_id": 110
  },
  {
    "unidad_productiva_id": "1",
    "horas_persona": "7.2",
    "valor_hora_persona": "2889",
    "dias_personas_total": "0.8",
    "presupuesto_mano_obra": "20800.8",
    "presupuesto_Total": "20800.8",
    "presupuesto_cip": "6480",
    "utilidad_provision": "4719.200000000001",
    "neto": "32000",
    "bruto": "32000",
    "centro_costo_id": 111
  },
  {
    "unidad_productiva_id": "1",
    "horas_persona": "18",
    "valor_hora_persona": "2889",
    "dias_personas_total": "2",
    "presupuesto_mano_obra": "52002",
    "presupuesto_Total": "52002",
    "presupuesto_cip": "16200",
    "utilidad_provision": "21798",
    "pendiente": "1929218",
    "neto": "90000",
    "bruto": "90000",
    "centro_costo_id": 112
  },
  {
    "unidad_productiva_id": "1",
    "horas_persona": "63",
    "valor_hora_persona": "2889",
    "dias_personas_total": "7",
    "presupuesto_mano_obra": "182007",
    "presupuesto_Total": "182007",
    "presupuesto_cip": "554400",
    "utilidad_provision": "38468",
    "pendiente": "1929218",
    "neto": "774875",
    "bruto": "774875",
    "centro_costo_id": 113
  },
  {
    "unidad_productiva_id": "1",
    "horas_persona": "9",
    "valor_hora_persona": "2889",
    "dias_personas_total": "1",
    "presupuesto_mano_obra": "26001",
    "presupuesto_Total": "26001",
    "presupuesto_cip": "79200",
    "utilidad_provision": "-24201",
    "neto": "81000",
    "bruto": "81000",
    "centro_costo_id": 114
  },
  {
    "unidad_productiva_id": "1",
    "horas_persona": "135",
    "valor_hora_persona": "2889",
    "dias_personas_total": "15",
    "presupuesto_mano_obra": "390015",
    "presupuesto_materiales": "100000",
    "presupuesto_Total": "490015",
    "presupuesto_cip": "121500",
    "utilidad_provision": "372552",
    "neto": "984067",
    "bruto": "1171039.73",
    "centro_costo_id": 115
  },
  {
    "unidad_productiva_id": "1",
    "horas_persona": "36",
    "valor_hora_persona": "2889",
    "dias_personas_total": "4",
    "presupuesto_mano_obra": "104004",
    "presupuesto_Total": "104004",
    "presupuesto_cip": "316800",
    "utilidad_provision": "270396",
    "neto": "691200",
    "bruto": "822528",
    "centro_costo_id": 116
  },
  {
    "unidad_productiva_id": "1",
    "horas_persona": "18",
    "valor_hora_persona": "2889",
    "dias_personas_total": "2",
    "presupuesto_mano_obra": "52002",
    "presupuesto_Total": "52002",
    "presupuesto_cip": "16200",
    "utilidad_provision": "15453",
    "neto": "83655",
    "bruto": "83655",
    "centro_costo_id": 117
  },
  {
    "unidad_productiva_id": "1",
    "horas_persona": "90",
    "valor_hora_persona": "2889",
    "dias_personas_total": "10",
    "presupuesto_mano_obra": "260010",
    "presupuesto_materiales": "1550000",
    "presupuesto_Total": "1810010",
    "presupuesto_cip": "81000",
    "utilidad_provision": "519389",
    "neto": "2410399",
    "bruto": "2868374.81",
    "centro_costo_id": 118
  },
  {
    "unidad_productiva_id": "1",
    "horas_persona": "3",
    "valor_hora_persona": "2889",
    "dias_personas_total": "0.3333333333333333",
    "presupuesto_mano_obra": "8667",
    "presupuesto_Total": "8667",
    "presupuesto_cip": "26400",
    "utilidad_provision": "4933",
    "neto": "40000",
    "bruto": "40000",
    "centro_costo_id": 119
  },
  {
    "unidad_productiva_id": "1",
    "horas_persona": "4",
    "valor_hora_persona": "2889",
    "dias_personas_total": "0.4444444444444444",
    "presupuesto_mano_obra": "11556",
    "presupuesto_Total": "11556",
    "presupuesto_cip": "35200",
    "utilidad_provision": "3244",
    "neto": "50000",
    "bruto": "50000",
    "centro_costo_id": 120
  },
  {
    "unidad_productiva_id": "1",
    "horas_persona": "9",
    "valor_hora_persona": "2889",
    "dias_personas_total": "1",
    "presupuesto_mano_obra": "26001",
    "presupuesto_Total": "26001",
    "presupuesto_cip": "79200",
    "utilidad_provision": "69799",
    "neto": "175000",
    "bruto": "175000",
    "centro_costo_id": 121
  },
  {
    "unidad_productiva_id": "1",
    "horas_persona": "738",
    "valor_hora_persona": "2889",
    "dias_personas_total": "82",
    "presupuesto_mano_obra": "2132082",
    "presupuesto_materiales": "4573063",
    "presupuesto_Total": "6705145",
    "presupuesto_cip": "664200",
    "utilidad_provision": "1998258",
    "neto": "9367603",
    "bruto": "11147447.57",
    "centro_costo_id": 122
  },
  {
    "unidad_productiva_id": "1",
    "neto": "1423244",
    "bruto": "1693660.3599999999",
    "centro_costo_id": 123
  },
  {
    "unidad_productiva_id": "1",
    "neto": "836000",
    "bruto": "994840",
    "centro_costo_id": 124
  },
  {
    "unidad_productiva_id": "1",
    "presupuesto_materiales": "5436285",
    "presupuesto_Total": "5436285",
    "neto": "6175164.35",
    "bruto": "7348445.5764999995",
    "centro_costo_id": 125
  },
  {
    "unidad_productiva_id": "1",
    "neto": "5062538",
    "bruto": "6024420.22",
    "centro_costo_id": 126
  },
  {
    "unidad_productiva_id": "1",
    "horas_persona": "81",
    "valor_hora_persona": "2889",
    "dias_personas_total": "9",
    "presupuesto_mano_obra": "234009",
    "presupuesto_Total": "234009",
    "presupuesto_cip": "712800",
    "utilidad_provision": "206496",
    "neto": "1153305",
    "bruto": "1153305",
    "centro_costo_id": 127
  },
  {
    "unidad_productiva_id": "1",
    "horas_persona": "9",
    "valor_hora_persona": "2889",
    "dias_personas_total": "1",
    "presupuesto_mano_obra": "26001",
    "presupuesto_Total": "26001",
    "presupuesto_cip": "8100",
    "utilidad_provision": "6597",
    "neto": "40698",
    "bruto": "40698",
    "centro_costo_id": 128
  },
  {
    "unidad_productiva_id": "1",
    "valor_hora_persona": "2889",
    "neto": "3130100",
    "bruto": "3724819",
    "centro_costo_id": 129
  },
  {
    "unidad_productiva_id": "1",
    "neto": "1300000",
    "bruto": "1300000",
    "centro_costo_id": 130
  },
  {
    "unidad_productiva_id": "1",
    "horas_persona": "2592",
    "valor_hora_persona": "2889",
    "dias_personas_total": "288",
    "presupuesto_mano_obra": "7488288",
    "presupuesto_materiales": "26097022",
    "presupuesto_Total": "33585310",
    "presupuesto_cip": "2332800",
    "utilidad_provision": "-11455520",
    "neto": "24462590",
    "bruto": "29110482.099999998",
    "centro_costo_id": 131
  },
  {
    "unidad_productiva_id": "1",
    "valor_hora_persona": "2889",
    "centro_costo_id": 132
  },
  {
    "unidad_productiva_id": "1",
    "horas_persona": "9",
    "valor_hora_persona": "2889",
    "dias_personas_total": "1",
    "presupuesto_mano_obra": "26001",
    "presupuesto_Total": "26001",
    "presupuesto_cip": "19800",
    "utilidad_provision": "1154199",
    "neto": "1200000",
    "bruto": "1200000",
    "centro_costo_id": 133
  },
  {
    "unidad_productiva_id": "1",
    "horas_persona": "18",
    "valor_hora_persona": "2889",
    "dias_personas_total": "2",
    "presupuesto_mano_obra": "52002",
    "presupuesto_Total": "52002",
    "presupuesto_cip": "16200",
    "utilidad_provision": "11798",
    "neto": "80000",
    "bruto": "80000",
    "centro_costo_id": 134
  },
  {
    "unidad_productiva_id": "1",
    "valor_hora_persona": "2889",
    "neto": "14667257",
    "bruto": "14667257",
    "centro_costo_id": 135
  },
  {
    "unidad_productiva_id": "1",
    "horas_persona": "18",
    "valor_hora_persona": "2889",
    "dias_personas_total": "2",
    "presupuesto_mano_obra": "52002",
    "presupuestos_traslados": "120000",
    "presupuesto_viaticos": "20000",
    "presupuesto_hospedajes": "35000",
    "presupuesto_Total": "227002",
    "presupuesto_cip": "16200",
    "utilidad_provision": "226798",
    "neto": "470000",
    "bruto": "559300",
    "centro_costo_id": 136
  },
  {
    "unidad_productiva_id": "1",
    "valor_hora_persona": "2889",
    "neto": "1438130",
    "bruto": "1711374.7",
    "centro_costo_id": 137
  },
  {
    "unidad_productiva_id": "1",
    "valor_hora_persona": "2889",
    "neto": "1150000",
    "bruto": "1368500",
    "centro_costo_id": 138
  },
  {
    "unidad_productiva_id": "1",
    "valor_hora_persona": "2889",
    "neto": "396750",
    "bruto": "472132.5",
    "centro_costo_id": 139
  },
  {
    "unidad_productiva_id": "1",
    "valor_hora_persona": "2889",
    "neto": "506000",
    "bruto": "602140",
    "centro_costo_id": 140
  },
  {
    "unidad_productiva_id": "1",
    "valor_hora_persona": "2889",
    "neto": "4570198",
    "bruto": "5438535.62",
    "centro_costo_id": 141
  },
  {
    "unidad_productiva_id": "1",
    "valor_hora_persona": "2889",
    "neto": "722925",
    "bruto": "722925",
    "centro_costo_id": 142
  },
  {
    "unidad_productiva_id": "1",
    "valor_hora_persona": "2889",
    "neto": "2751392",
    "bruto": "3274156.48",
    "centro_costo_id": 143
  },
  {
    "unidad_productiva_id": "1",
    "valor_hora_persona": "2889",
    "neto": "200000",
    "bruto": "238000",
    "centro_costo_id": 144
  },
  {
    "unidad_productiva_id": "1",
    "valor_hora_persona": "2889",
    "neto": "9790579",
    "bruto": "11650789.01",
    "centro_costo_id": 145
  },
  {
    "unidad_productiva_id": "1",
    "valor_hora_persona": "2889",
    "neto": "355072",
    "bruto": "422535.68",
    "centro_costo_id": 146
  },
  {
    "unidad_productiva_id": "1",
    "valor_hora_persona": "2889",
    "neto": "1873344",
    "bruto": "2229279.36",
    "centro_costo_id": 147
  },
  {
    "unidad_productiva_id": "1",
    "valor_hora_persona": "2889",
    "neto": "2961500",
    "bruto": "3524185",
    "centro_costo_id": 148
  },
  {
    "unidad_productiva_id": "1",
    "valor_hora_persona": "3611",
    "neto": "8945839",
    "bruto": "10645548.41",
    "centro_costo_id": 149
  },
  {
    "unidad_productiva_id": "1",
    "valor_hora_persona": "2889",
    "neto": "2242478",
    "bruto": "2242478",
    "centro_costo_id": 150
  },
  {
    "unidad_productiva_id": "1",
    "valor_hora_persona": "2889",
    "neto": "1253021",
    "bruto": "1491094.99",
    "centro_costo_id": 151
  },
  {
    "unidad_productiva_id": "1",
    "valor_hora_persona": "3611",
    "neto": "598000",
    "bruto": "711620",
    "centro_costo_id": 152
  },
  {
    "unidad_productiva_id": "1",
    "valor_hora_persona": "2889",
    "neto": "485000",
    "bruto": "577150",
    "centro_costo_id": 153
  },
  {
    "unidad_productiva_id": "1",
    "valor_hora_persona": "2889",
    "neto": "119686",
    "bruto": "142426.34",
    "centro_costo_id": 154
  },
  {
    "unidad_productiva_id": "1",
    "valor_hora_persona": "2889",
    "neto": "585000",
    "bruto": "696150",
    "centro_costo_id": 155
  },
  {
    "unidad_productiva_id": "1",
    "horas_persona": "495",
    "valor_hora_persona": "2889",
    "dias_personas_total": "55",
    "presupuesto_mano_obra": "1430055",
    "presupuesto_materiales": "5267785",
    "presupuesto_Total": "6697840",
    "presupuesto_cip": "663300",
    "utilidad_provision": "1731461",
    "neto": "9092601",
    "bruto": "10820195.19",
    "centro_costo_id": 156
  },
  {
    "unidad_productiva_id": "1",
    "valor_hora_persona": "2889",
    "neto": "314500",
    "bruto": "374255",
    "centro_costo_id": 157
  },
  {
    "unidad_productiva_id": "1",
    "horas_persona": "720",
    "valor_hora_persona": "2889",
    "dias_personas_total": "80",
    "presupuesto_mano_obra": "2080080",
    "presupuesto_materiales": "7938712",
    "presupuestos_traslados": "660000",
    "presupuesto_viaticos": "800000",
    "presupuesto_hospedajes": "750000",
    "presupuesto_Total": "12228792",
    "presupuesto_cip": "648000",
    "utilidad_provision": "10389662",
    "neto": "23266454",
    "bruto": "27687080.259999998",
    "centro_costo_id": 158
  },
  {
    "unidad_productiva_id": "1",
    "valor_hora_persona": "2889",
    "neto": "175000",
    "bruto": "208250",
    "centro_costo_id": 159
  },
  {
    "unidad_productiva_id": "1",
    "valor_hora_persona": "2889",
    "neto": "870895",
    "bruto": "1036365.0499999999",
    "centro_costo_id": 160
  },
  {
    "unidad_productiva_id": "1",
    "valor_hora_persona": "2889",
    "neto": "578441",
    "bruto": "688344.7899999999",
    "centro_costo_id": 161
  },
  {
    "unidad_productiva_id": "1",
    "valor_hora_persona": "2889",
    "neto": "543550",
    "bruto": "646824.5",
    "centro_costo_id": 162
  },
  {
    "unidad_productiva_id": "1",
    "valor_hora_persona": "2889",
    "neto": "165500",
    "bruto": "196945",
    "centro_costo_id": 163
  },
  {
    "unidad_productiva_id": "1",
    "valor_hora_persona": "2889",
    "neto": "1146549",
    "bruto": "1364393.3099999998",
    "centro_costo_id": 164
  },
  {
    "unidad_productiva_id": "1",
    "valor_hora_persona": "2889",
    "neto": "360000",
    "bruto": "360000",
    "centro_costo_id": 165
  },
  {
    "unidad_productiva_id": "1",
    "valor_hora_persona": "2889",
    "neto": "30000",
    "bruto": "35700",
    "centro_costo_id": 166
  },
  {
    "unidad_productiva_id": "1",
    "centro_costo_id": 167
  },
  {
    "unidad_productiva_id": "1",
    "horas_persona": "90",
    "valor_hora_persona": "2889",
    "dias_personas_total": "10",
    "presupuesto_mano_obra": "260010",
    "presupuesto_materiales": "300000",
    "presupuesto_Total": "560010",
    "presupuesto_cip": "81000",
    "utilidad_provision": "98486",
    "neto": "739496",
    "bruto": "880000.24",
    "centro_costo_id": 168
  },
  {
    "unidad_productiva_id": "1",
    "horas_persona": "1791",
    "valor_hora_persona": "3592.222222222222",
    "dias_personas_total": "199",
    "presupuesto_mano_obra": "6433670",
    "presupuesto_materiales": "5963612",
    "presupuesto_Total": "12397282",
    "cip_hora_cobrado": "1900",
    "neto": "15520612",
    "bruto": "18469528.279999997",
    "centro_costo_id": 169
  },
  {
    "unidad_productiva_id": "1",
    "valor_hora_persona": "3611",
    "neto": "333200",
    "bruto": "396508",
    "centro_costo_id": 170
  },
  {
    "unidad_productiva_id": "1",
    "neto": "1058000",
    "bruto": "1259020",
    "centro_costo_id": 171
  },
  {
    "unidad_productiva_id": "1",
    "neto": "284615",
    "bruto": "284615",
    "centro_costo_id": 172
  },
  {
    "unidad_productiva_id": "1",
    "neto": "300000",
    "bruto": "300000",
    "centro_costo_id": 173
  },
  {
    "unidad_productiva_id": "1",
    "neto": "190000",
    "bruto": "190000",
    "centro_costo_id": 174
  },
  {
    "unidad_productiva_id": "1",
    "neto": "100000",
    "bruto": "100000",
    "centro_costo_id": 175
  },
  {
    "unidad_productiva_id": "1",
    "neto": "100000",
    "bruto": "100000",
    "centro_costo_id": 176
  },
  {
    "unidad_productiva_id": "1",
    "neto": "4515600",
    "bruto": "5373564",
    "centro_costo_id": 177
  },
  {
    "unidad_productiva_id": "1",
    "neto": "2307259",
    "bruto": "2745638.21",
    "centro_costo_id": 178
  },
  {
    "unidad_productiva_id": "1",
    "neto": "1547201",
    "bruto": "1841169.19",
    "centro_costo_id": 179
  },
  {
    "unidad_productiva_id": "1",
    "neto": "1125829",
    "bruto": "1339736.51",
    "centro_costo_id": 180
  },
  {
    "unidad_productiva_id": "1",
    "neto": "1482756",
    "bruto": "1764479.64",
    "centro_costo_id": 181
  },
  {
    "unidad_productiva_id": "1",
    "neto": "734140",
    "bruto": "873626.6",
    "centro_costo_id": 182
  },
  {
    "unidad_productiva_id": "1",
    "centro_costo_id": 183
  },
  {
    "unidad_productiva_id": "1",
    "horas_persona": "432",
    "valor_hora_persona": "3222.222222222222",
    "dias_personas_total": "48",
    "presupuesto_mano_obra": "1392000",
    "presupuesto_materiales": "2772349",
    "presupuesto_Total": "4164349",
    "cip_hora_cobrado": "1390",
    "presupuesto_cip": "600480",
    "utilidad_provision": "1330171",
    "neto": "6095000",
    "bruto": "7253050",
    "centro_costo_id": 184
  },
  {
    "unidad_productiva_id": "1",
    "horas_persona": "549",
    "valor_hora_persona": "3222.222222222222",
    "dias_personas_total": "61",
    "presupuesto_mano_obra": "1769000",
    "presupuesto_materiales": "3673744.4",
    "presupuesto_Total": "5442744.4",
    "cip_hora_cobrado": "1390",
    "presupuesto_cip": "763110",
    "utilidad_provision": "1769145.5999999996",
    "neto": "7975000",
    "bruto": "9490250",
    "centro_costo_id": 185
  },
  {
    "unidad_productiva_id": "1",
    "neto": "3205762",
    "bruto": "3814856.78",
    "centro_costo_id": 186
  },
  {
    "unidad_productiva_id": "1",
    "valor_hora_persona": "3237.1111111111113",
    "cip_hora_cobrado": "1895",
    "neto": "5763589",
    "bruto": "6858670.91",
    "centro_costo_id": 187
  },
  {
    "unidad_productiva_id": "1",
    "valor_hora_persona": "3237.1111111111113",
    "cip_hora_cobrado": "1895",
    "neto": "2341119",
    "bruto": "2785931.61",
    "centro_costo_id": 188
  },
  {
    "unidad_productiva_id": "1",
    "neto": "188592",
    "bruto": "224424.47999999998",
    "centro_costo_id": 189
  },
  {
    "unidad_productiva_id": "1",
    "centro_costo_id": 190
  },
  {
    "unidad_productiva_id": "1",
    "neto": "152985",
    "bruto": "152985",
    "centro_costo_id": 191
  },
  {
    "unidad_productiva_id": "1",
    "neto": "400000",
    "bruto": "400000",
    "centro_costo_id": 192
  },
  {
    "unidad_productiva_id": "1",
    "neto": "477000",
    "bruto": "477000",
    "centro_costo_id": 193
  },
  {
    "unidad_productiva_id": "1",
    "neto": "477000",
    "bruto": "477000",
    "centro_costo_id": 194
  },
  {
    "unidad_productiva_id": "1",
    "neto": "318000",
    "bruto": "318000",
    "centro_costo_id": 195
  },
  {
    "unidad_productiva_id": "1",
    "neto": "471600",
    "bruto": "561204",
    "centro_costo_id": 196
  },
  {
    "unidad_productiva_id": "1",
    "neto": "550340",
    "bruto": "654904.6",
    "centro_costo_id": 197
  },
  {
    "unidad_productiva_id": "1",
    "neto": "100000",
    "bruto": "100000",
    "centro_costo_id": 198
  },
  {
    "unidad_productiva_id": "1",
    "neto": "602000",
    "bruto": "602000",
    "centro_costo_id": 199
  },
  {
    "unidad_productiva_id": "1",
    "valor_hora_persona": "3237.1111111111113",
    "neto": "420000",
    "bruto": "420000",
    "centro_costo_id": 200
  },
  {
    "unidad_productiva_id": "1",
    "valor_hora_persona": "3237.1111111111113",
    "cip_hora_cobrado": "1909",
    "neto": "12571200",
    "bruto": "14959728",
    "centro_costo_id": 201
  },
  {
    "unidad_productiva_id": "1",
    "valor_hora_persona": "3237.1111111111113",
    "neto": "760890",
    "bruto": "905459.1",
    "centro_costo_id": 202
  },
  {
    "unidad_productiva_id": "1",
    "valor_hora_persona": "3237.1111111111113",
    "cip_hora_cobrado": "1895",
    "neto": "1456900",
    "bruto": "1733711",
    "centro_costo_id": 203
  },
  {
    "unidad_productiva_id": "1",
    "valor_hora_persona": "3237.1111111111113",
    "neto": "2125000",
    "bruto": "2528750",
    "centro_costo_id": 204
  },
  {
    "unidad_productiva_id": "1",
    "valor_hora_persona": "3237.1111111111113",
    "cip_hora_cobrado": "1830",
    "pendiente": "100000",
    "neto": "1930000",
    "bruto": "2296700",
    "centro_costo_id": 205
  },
  {
    "unidad_productiva_id": "1",
    "horas_persona": "117",
    "valor_hora_persona": "3237.1111111111113",
    "dias_personas_total": "13",
    "presupuesto_mano_obra": "378742",
    "presupuesto_Total": "378742",
    "cip_hora_cobrado": "1895",
    "neto": "1950000",
    "bruto": "1950000",
    "centro_costo_id": 206
  },
  {
    "unidad_productiva_id": "1",
    "valor_hora_persona": "3237.1111111111113",
    "neto": "3500000",
    "bruto": "3500000",
    "centro_costo_id": 207
  },
  {
    "unidad_productiva_id": "1",
    "valor_hora_persona": "2888.8888888888887",
    "cip_hora_cobrado": "2000",
    "neto": "4218462",
    "bruto": "5019969.779999999",
    "centro_costo_id": 208
  },
  {
    "unidad_productiva_id": "1",
    "horas_persona": "240.75",
    "valor_hora_persona": "2888.8888888888887",
    "dias_personas_total": "26.75",
    "presupuesto_mano_obra": "695500",
    "presupuesto_materiales": "750000",
    "presupuesto_Total": "1445500",
    "cip_hora_cobrado": "1390",
    "presupuesto_cip": "334642.5",
    "utilidad_provision": "485102.5",
    "neto": "2265245",
    "bruto": "2695641.55",
    "centro_costo_id": 209
  },
  {
    "unidad_productiva_id": "1",
    "horas_persona": "36",
    "valor_hora_persona": "2889",
    "dias_personas_total": "4",
    "presupuesto_mano_obra": "104004",
    "presupuesto_Total": "104004",
    "cip_hora_cobrado": "1390",
    "presupuesto_cip": "50040",
    "utilidad_provision": "145956",
    "neto": "300000",
    "bruto": "300000",
    "centro_costo_id": 210
  },
  {
    "unidad_productiva_id": "1",
    "horas_persona": "81",
    "valor_hora_persona": "3794.5555555555557",
    "dias_personas_total": "9",
    "presupuesto_mano_obra": "307359",
    "presupuesto_materiales": "250000",
    "presupuestos_traslados": "30000",
    "presupuesto_viaticos": "120000",
    "presupuesto_hospedajes": "230000",
    "presupuesto_otros": "240000",
    "presupuesto_Total": "1177359",
    "cip_hora_cobrado": "1390",
    "presupuesto_cip": "112590",
    "utilidad_provision": "1361773",
    "neto": "2651722",
    "bruto": "3155549.1799999997",
    "centro_costo_id": 211
  },
  {
    "unidad_productiva_id": "1",
    "horas_persona": "18",
    "valor_hora_persona": "3794.5555555555557",
    "dias_personas_total": "2",
    "presupuesto_mano_obra": "68302",
    "presupuesto_materiales": "665500",
    "presupuesto_Total": "733802",
    "cip_hora_cobrado": "1390",
    "presupuesto_cip": "25020",
    "utilidad_provision": "97453",
    "neto": "856275",
    "bruto": "1018967.25",
    "centro_costo_id": 212
  },
  {
    "unidad_productiva_id": "1",
    "horas_persona": "162",
    "valor_hora_persona": "4416.666666666667",
    "dias_personas_total": "18",
    "presupuesto_mano_obra": "715500",
    "presupuesto_materiales": "280000",
    "presupuesto_viaticos": "255000",
    "presupuesto_hospedajes": "340000",
    "presupuesto_Total": "1590500",
    "cip_hora_cobrado": "2000",
    "presupuesto_cip": "324000",
    "utilidad_provision": "347850",
    "neto": "2262350",
    "bruto": "2692196.5",
    "centro_costo_id": 213
  },
  {
    "unidad_productiva_id": "1",
    "horas_persona": "265.5",
    "valor_hora_persona": "3827.777777777778",
    "dias_personas_total": "29.5",
    "presupuesto_mano_obra": "1016275",
    "presupuesto_materiales": "1470897",
    "presupuesto_Total": "2487172",
    "cip_hora_cobrado": "1600",
    "presupuesto_cip": "424800",
    "utilidad_provision": "884098",
    "neto": "3796070",
    "bruto": "4517323.3",
    "centro_costo_id": 214
  },
  {
    "unidad_productiva_id": "1",
    "valor_hora_persona": "3237.1111111111113",
    "cip_hora_cobrado": "1830",
    "utilidad_provision": "4436631.403361345",
    "neto": "4436631.403361345",
    "bruto": "5279591.37",
    "centro_costo_id": 215
  },
  {
    "unidad_productiva_id": "1",
    "horas_persona": "162",
    "valor_hora_persona": "2944.4444444444443",
    "dias_personas_total": "18",
    "presupuesto_mano_obra": "477000",
    "presupuesto_materiales": "1499260",
    "presupuesto_Total": "1976260",
    "cip_hora_cobrado": "2000",
    "presupuesto_cip": "324000",
    "utilidad_provision": "535711",
    "neto": "2835971",
    "bruto": "3374805.4899999998",
    "centro_costo_id": 216
  },
  {
    "unidad_productiva_id": "1",
    "horas_persona": "40.5",
    "valor_hora_persona": "3888.8888888888887",
    "dias_personas_total": "4.5",
    "presupuesto_mano_obra": "157500",
    "presupuesto_Total": "157500",
    "cip_hora_cobrado": "2336",
    "presupuesto_cip": "94608",
    "utilidad_provision": "147892",
    "neto": "400000",
    "bruto": "476000",
    "centro_costo_id": 217
  },
  {
    "unidad_productiva_id": "1",
    "horas_persona": "162",
    "valor_hora_persona": "5555.555555555556",
    "dias_personas_total": "18",
    "presupuesto_mano_obra": "900000",
    "presupuesto_materiales": "1222927",
    "presupuesto_Total": "2122927",
    "cip_hora_cobrado": "1800",
    "presupuesto_cip": "291600",
    "utilidad_provision": "555428",
    "neto": "2969955",
    "bruto": "3534246.4499999997",
    "centro_costo_id": 218
  },
  {
    "unidad_productiva_id": "1",
    "horas_persona": "180",
    "valor_hora_persona": "4416.666666666667",
    "dias_personas_total": "20",
    "presupuesto_mano_obra": "795000",
    "presupuesto_Total": "795000",
    "cip_hora_cobrado": "2000",
    "presupuesto_cip": "360000",
    "utilidad_provision": "1477350",
    "neto": "2632350",
    "bruto": "3132496.5",
    "centro_costo_id": 219
  },
  {
    "unidad_productiva_id": "1",
    "horas_persona": "216",
    "valor_hora_persona": "4416.666666666667",
    "dias_personas_total": "24",
    "presupuesto_mano_obra": "954000.0000000001",
    "presupuesto_materiales": "1886487",
    "presupuesto_Total": "2840487",
    "cip_hora_cobrado": "1390",
    "presupuesto_cip": "300240",
    "utilidad_provision": "1144648",
    "neto": "4285375",
    "bruto": "5099596.25",
    "centro_costo_id": 220
  },
  {
    "unidad_productiva_id": "1",
    "valor_hora_persona": "3237.1111111111113",
    "cip_hora_cobrado": "1909",
    "utilidad_provision": "1184880",
    "neto": "1184880",
    "bruto": "1410007.2",
    "centro_costo_id": 221
  },
  {
    "unidad_productiva_id": "1",
    "horas_persona": "207",
    "valor_hora_persona": "4416.666666666667",
    "dias_personas_total": "23",
    "presupuesto_mano_obra": "914250.0000000001",
    "presupuesto_materiales": "420000",
    "presupuesto_viaticos": "255000",
    "presupuesto_hospedajes": "510000",
    "presupuesto_Total": "2099250",
    "cip_hora_cobrado": "2000",
    "presupuesto_cip": "414000",
    "utilidad_provision": "284325",
    "neto": "2797575",
    "bruto": "3329114.25",
    "centro_costo_id": 222
  },
  {
    "unidad_productiva_id": "1",
    "horas_persona": "90",
    "valor_hora_persona": "4417",
    "dias_personas_total": "10",
    "presupuesto_mano_obra": "397530",
    "presupuesto_Total": "397530",
    "cip_hora_cobrado": "2000",
    "presupuesto_cip": "180000",
    "utilidad_provision": "122470",
    "neto": "700000",
    "bruto": "833000",
    "centro_costo_id": 223
  },
  {
    "unidad_productiva_id": "1",
    "horas_persona": "27",
    "valor_hora_persona": "4417",
    "dias_personas_total": "3",
    "presupuesto_mano_obra": "119259",
    "presupuesto_materiales": "250000",
    "presupuesto_Total": "369259",
    "cip_hora_cobrado": "2000",
    "presupuesto_cip": "54000",
    "utilidad_provision": "231741",
    "neto": "655000",
    "bruto": "779450",
    "centro_costo_id": 224
  },
  {
    "unidad_productiva_id": "1",
    "horas_persona": "9",
    "valor_hora_persona": "4417",
    "dias_personas_total": "1",
    "presupuesto_mano_obra": "39753",
    "presupuesto_materiales": "80000",
    "presupuesto_Total": "119753",
    "cip_hora_cobrado": "1390",
    "presupuesto_cip": "12510",
    "utilidad_provision": "122737",
    "neto": "255000",
    "bruto": "303450",
    "centro_costo_id": 225
  },
  {
    "unidad_productiva_id": "1",
    "horas_persona": "18",
    "valor_hora_persona": "3827.777777777778",
    "dias_personas_total": "2",
    "presupuesto_mano_obra": "68900",
    "presupuesto_materiales": "200000",
    "presupuesto_Total": "268900",
    "cip_hora_cobrado": "1390",
    "presupuesto_cip": "25020",
    "utilidad_provision": "201930",
    "neto": "495850",
    "bruto": "590061.5",
    "centro_costo_id": 226
  },
  {
    "unidad_productiva_id": "1",
    "horas_persona": "210",
    "valor_hora_persona": "3827.777777777778",
    "dias_personas_total": "23.333333333333332",
    "presupuesto_mano_obra": "803833.3333333334",
    "presupuesto_Total": "803833.3333333334",
    "cip_hora_cobrado": "2000",
    "presupuesto_cip": "420000",
    "utilidad_provision": "176166.66666666663",
    "neto": "1400000",
    "bruto": "1666000",
    "centro_costo_id": 227
  },
  {
    "unidad_productiva_id": "1",
    "horas_persona": "36",
    "valor_hora_persona": "3827.777777777778",
    "dias_personas_total": "4",
    "presupuesto_mano_obra": "137800",
    "presupuesto_materiales": "75000",
    "presupuesto_Total": "212800",
    "cip_hora_cobrado": "2000",
    "presupuesto_cip": "72000",
    "utilidad_provision": "115100",
    "neto": "399900",
    "bruto": "475881",
    "centro_costo_id": 228
  },
  {
    "unidad_productiva_id": "1",
    "horas_persona": "36",
    "valor_hora_persona": "3828",
    "dias_personas_total": "4",
    "presupuesto_mano_obra": "137808",
    "presupuesto_materiales": "150000",
    "presupuesto_Total": "287808",
    "cip_hora_cobrado": "2000",
    "presupuesto_cip": "72000",
    "utilidad_provision": "169692",
    "neto": "529500",
    "bruto": "630105",
    "centro_costo_id": 229
  },
  {
    "unidad_productiva_id": "1",
    "horas_persona": "27",
    "valor_hora_persona": "3828",
    "dias_personas_total": "3",
    "presupuesto_mano_obra": "103356",
    "presupuesto_Total": "103356",
    "cip_hora_cobrado": "2000",
    "presupuesto_cip": "54000",
    "utilidad_provision": "192644",
    "neto": "350000",
    "bruto": "416500",
    "centro_costo_id": 230
  },
  {
    "unidad_productiva_id": "1",
    "horas_persona": "54",
    "valor_hora_persona": "3828",
    "dias_personas_total": "6",
    "presupuesto_mano_obra": "206712",
    "presupuesto_materiales": "250000",
    "presupuesto_Total": "456712",
    "cip_hora_cobrado": "2000",
    "presupuesto_cip": "108000",
    "utilidad_provision": "93888",
    "neto": "658600",
    "bruto": "783734",
    "centro_costo_id": 231
  },
  {
    "unidad_productiva_id": "1",
    "horas_persona": "90",
    "valor_hora_persona": "3828",
    "dias_personas_total": "10",
    "presupuesto_mano_obra": "344520",
    "presupuesto_materiales": "450000",
    "presupuesto_Total": "794520",
    "cip_hora_cobrado": "2000",
    "presupuesto_cip": "180000",
    "utilidad_provision": "168980",
    "neto": "1143500",
    "bruto": "1360765",
    "centro_costo_id": 232
  },
  {
    "unidad_productiva_id": "1",
    "horas_persona": "18",
    "valor_hora_persona": "3828",
    "dias_personas_total": "2",
    "presupuesto_mano_obra": "68904",
    "presupuesto_Total": "68904",
    "cip_hora_cobrado": "2000",
    "presupuesto_cip": "36000",
    "utilidad_provision": "215096",
    "neto": "320000",
    "bruto": "380800",
    "centro_costo_id": 233
  },
  {
    "unidad_productiva_id": "1",
    "valor_hora_persona": "3237.1111111111113",
    "cip_hora_cobrado": "1895",
    "utilidad_provision": "1135243",
    "neto": "1135243",
    "bruto": "1350939.17",
    "centro_costo_id": 234
  },
  {
    "unidad_productiva_id": "1",
    "horas_persona": "153",
    "valor_hora_persona": "3680.5555555555557",
    "dias_personas_total": "17",
    "presupuesto_mano_obra": "563125",
    "presupuesto_materiales": "545842",
    "presupuesto_Total": "1108967",
    "cip_hora_cobrado": "2000",
    "presupuesto_cip": "306000",
    "utilidad_provision": "348470",
    "neto": "1763437",
    "bruto": "2098490.03",
    "centro_costo_id": 235
  },
  {
    "unidad_productiva_id": "1",
    "valor_hora_persona": "3237.1111111111113",
    "cip_hora_cobrado": "1895",
    "utilidad_provision": "1668110",
    "neto": "1668110",
    "bruto": "1985050.9",
    "centro_costo_id": 236
  },
  {
    "unidad_productiva_id": "1",
    "valor_hora_persona": "3237.1111111111113",
    "cip_hora_cobrado": "1830",
    "utilidad_provision": "45000",
    "neto": "45000",
    "bruto": "45000",
    "centro_costo_id": 237
  },
  {
    "unidad_productiva_id": "1",
    "horas_persona": "18",
    "valor_hora_persona": "3237.1111111111113",
    "dias_personas_total": "2",
    "presupuesto_mano_obra": "58268",
    "presupuesto_materiales": "100000",
    "presupuesto_Total": "158268",
    "cip_hora_cobrado": "1895",
    "presupuesto_cip": "34110",
    "utilidad_provision": "54550",
    "neto": "246928",
    "bruto": "293844.32",
    "centro_costo_id": 238
  },
  {
    "unidad_productiva_id": "1",
    "horas_persona": "18",
    "valor_hora_persona": "3237",
    "dias_personas_total": "2",
    "presupuesto_mano_obra": "58266",
    "presupuesto_materiales": "80000",
    "presupuesto_Total": "138266",
    "cip_hora_cobrado": "1895",
    "presupuesto_cip": "34110",
    "utilidad_provision": "20049",
    "neto": "192425",
    "bruto": "228985.75",
    "centro_costo_id": 239
  },
  {
    "unidad_productiva_id": "1",
    "valor_hora_persona": "3970.4444444444443",
    "presupuesto_materiales": "360524",
    "presupuesto_Total": "360524",
    "cip_hora_cobrado": "1830",
    "neto": "360524",
    "bruto": "429023.56",
    "centro_costo_id": 240
  },
  {
    "unidad_productiva_id": "1",
    "valor_hora_persona": "3970.4444444444443",
    "presupuesto_materiales": "489081",
    "presupuesto_Total": "489081",
    "cip_hora_cobrado": "1830",
    "neto": "489081",
    "bruto": "582006.39",
    "centro_costo_id": 241
  },
  {
    "unidad_productiva_id": "1",
    "valor_hora_persona": "3970.4444444444443",
    "presupuesto_materiales": "375783",
    "presupuesto_Total": "375783",
    "cip_hora_cobrado": "1830",
    "neto": "375783",
    "bruto": "447181.77",
    "centro_costo_id": 242
  },
  {
    "unidad_productiva_id": "1",
    "horas_persona": "351",
    "valor_hora_persona": "3467",
    "dias_personas_total": "39",
    "presupuesto_mano_obra": "1216917",
    "presupuesto_materiales": "280000",
    "presupuesto_viaticos": "340000",
    "presupuesto_hospedajes": "340000",
    "presupuesto_Total": "3992304",
    "cip_hora_cobrado": "2000",
    "presupuesto_cip": "702000",
    "utilidad_provision": "929165",
    "neto": "5623469",
    "bruto": "6691928.109999999",
    "centro_costo_id": 243
  },
  {
    "unidad_productiva_id": "1",
    "horas_persona": "63",
    "valor_hora_persona": "3260.777777777778",
    "dias_personas_total": "7",
    "presupuesto_mano_obra": "205429",
    "presupuesto_materiales": "228780",
    "presupuesto_Total": "434209",
    "cip_hora_cobrado": "1895",
    "presupuesto_cip": "119385",
    "utilidad_provision": "79406",
    "neto": "633000",
    "bruto": "753270",
    "centro_costo_id": 244
  },
  {
    "unidad_productiva_id": "1",
    "horas_persona": "252",
    "valor_hora_persona": "3261",
    "dias_personas_total": "28",
    "presupuesto_mano_obra": "821772",
    "presupuesto_materiales": "784200",
    "presupuesto_Total": "1605972",
    "cip_hora_cobrado": "1895",
    "presupuesto_cip": "477540",
    "utilidad_provision": "673488",
    "neto": "2757000",
    "bruto": "3280830",
    "centro_costo_id": 245
  },
  {
    "unidad_productiva_id": "1",
    "valor_hora_persona": "3237.1111111111113",
    "cip_hora_cobrado": "1895",
    "utilidad_provision": "235000",
    "neto": "235000",
    "bruto": "235000",
    "centro_costo_id": 246
  },
  {
    "unidad_productiva_id": "1",
    "valor_hora_persona": "3237.1111111111113",
    "cip_hora_cobrado": "1830",
    "utilidad_provision": "40000000",
    "neto": "40000000",
    "bruto": "40000000",
    "centro_costo_id": 247
  },
  {
    "unidad_productiva_id": "1",
    "valor_hora_persona": "3237.1111111111113",
    "cip_hora_cobrado": "1900",
    "utilidad_provision": "1166805",
    "neto": "1166805",
    "bruto": "1388498",
    "centro_costo_id": 248
  },
  {
    "unidad_productiva_id": "1",
    "horas_persona": "166.5",
    "valor_hora_persona": "3237.1111111111113",
    "dias_personas_total": "18.5",
    "presupuesto_mano_obra": "538979",
    "presupuesto_materiales": "105221",
    "presupuesto_Total": "644200",
    "cip_hora_cobrado": "1830",
    "presupuesto_cip": "304695",
    "utilidad_provision": "217460",
    "neto": "1166355",
    "bruto": "1387962.45",
    "centro_costo_id": 249
  },
  {
    "unidad_productiva_id": "1",
    "valor_hora_persona": "3237.1111111111113",
    "cip_hora_cobrado": "1909",
    "utilidad_provision": "150000",
    "neto": "150000",
    "bruto": "150000",
    "centro_costo_id": 250
  },
  {
    "unidad_productiva_id": "1",
    "valor_hora_persona": "3237.1111111111113",
    "cip_hora_cobrado": "1909",
    "utilidad_provision": "855000",
    "neto": "855000",
    "bruto": "855000",
    "centro_costo_id": 251
  },
  {
    "unidad_productiva_id": "1",
    "horas_persona": "9",
    "valor_hora_persona": "3467",
    "dias_personas_total": "1",
    "presupuesto_mano_obra": "31203",
    "presupuesto_materiales": "20000",
    "presupuesto_viaticos": "10000",
    "presupuesto_hospedajes": "10000",
    "presupuesto_Total": "71203",
    "cip_hora_cobrado": "2000",
    "presupuesto_cip": "18000",
    "utilidad_provision": "100917",
    "neto": "190120",
    "bruto": "226242.8",
    "centro_costo_id": 252
  },
  {
    "unidad_productiva_id": "1",
    "horas_persona": "45",
    "valor_hora_persona": "3466.6666666666665",
    "dias_personas_total": "5",
    "presupuesto_mano_obra": "156000",
    "presupuesto_materiales": "92875",
    "presupuesto_viaticos": "75000",
    "presupuesto_hospedajes": "75000",
    "presupuesto_Total": "398875",
    "cip_hora_cobrado": "2000",
    "presupuesto_cip": "90000",
    "utilidad_provision": "133333",
    "neto": "622208",
    "bruto": "740427.52",
    "centro_costo_id": 253
  },
  {
    "unidad_productiva_id": "1",
    "horas_persona": "63",
    "valor_hora_persona": "3467",
    "dias_personas_total": "7",
    "presupuesto_mano_obra": "218421",
    "presupuesto_materiales": "181940",
    "presupuesto_viaticos": "105000",
    "presupuesto_hospedajes": "105000",
    "presupuesto_Total": "610361",
    "cip_hora_cobrado": "2000",
    "presupuesto_cip": "126000",
    "utilidad_provision": "212343",
    "neto": "948704",
    "bruto": "1128957.76",
    "centro_costo_id": 254
  },
  {
    "unidad_productiva_id": "1",
    "horas_persona": "36",
    "valor_hora_persona": "3467",
    "dias_personas_total": "4",
    "presupuesto_mano_obra": "124812",
    "presupuesto_materiales": "84990",
    "presupuesto_viaticos": "60000",
    "presupuesto_hospedajes": "60000",
    "presupuesto_Total": "329802",
    "cip_hora_cobrado": "2000",
    "presupuesto_cip": "72000",
    "utilidad_provision": "111797",
    "neto": "513599",
    "bruto": "611182.8099999999",
    "centro_costo_id": 255
  },
  {
    "unidad_productiva_id": "1",
    "horas_persona": "144",
    "valor_hora_persona": "4416.666666666667",
    "dias_personas_total": "16",
    "presupuesto_mano_obra": "636000",
    "presupuesto_materiales": "513000",
    "presupuesto_viaticos": "170000",
    "presupuesto_hospedajes": "356250",
    "presupuesto_Total": "1675250",
    "cip_hora_cobrado": "2000",
    "presupuesto_cip": "288000",
    "utilidad_provision": "443950",
    "neto": "2407200",
    "bruto": "2864568",
    "centro_costo_id": 256
  },
  {
    "unidad_productiva_id": "1",
    "horas_persona": "108",
    "valor_hora_persona": "3237.1111111111113",
    "dias_personas_total": "12",
    "presupuesto_mano_obra": "349608",
    "presupuesto_materiales": "150000",
    "presupuesto_Total": "499608",
    "cip_hora_cobrado": "1909",
    "presupuesto_cip": "206172",
    "utilidad_provision": "216570",
    "neto": "922350",
    "bruto": "1097596.5",
    "centro_costo_id": 257
  },
  {
    "unidad_productiva_id": "1",
    "horas_persona": "252",
    "valor_hora_persona": "3237.1111111111113",
    "dias_personas_total": "28",
    "presupuesto_mano_obra": "815752",
    "presupuesto_materiales": "1085000",
    "presupuesto_Total": "1900752",
    "cip_hora_cobrado": "1909",
    "presupuesto_cip": "481068",
    "utilidad_provision": "-890838",
    "neto": "1490982",
    "bruto": "1774268.5799999998",
    "centro_costo_id": 258
  },
  {
    "unidad_productiva_id": "1",
    "horas_persona": "13.5",
    "valor_hora_persona": "3237.1111111111113",
    "dias_personas_total": "1.5",
    "presupuesto_mano_obra": "43701",
    "presupuesto_materiales": "64389",
    "presupuesto_Total": "108090",
    "cip_hora_cobrado": "1909",
    "presupuesto_cip": "25771.5",
    "utilidad_provision": "26772.5",
    "neto": "160634",
    "bruto": "191154.46",
    "centro_costo_id": 259
  },
  {
    "unidad_productiva_id": "1",
    "horas_persona": "220.5",
    "valor_hora_persona": "3237.1111111111113",
    "dias_personas_total": "24.5",
    "presupuesto_mano_obra": "713783",
    "presupuesto_materiales": "44000",
    "presupuesto_Total": "757783",
    "cip_hora_cobrado": "1909",
    "presupuesto_cip": "420934.5",
    "utilidad_provision": "1369392.5",
    "neto": "2548110",
    "bruto": "2548110",
    "centro_costo_id": 260
  },
  {
    "unidad_productiva_id": "1",
    "horas_persona": "18",
    "valor_hora_persona": "3237",
    "dias_personas_total": "2",
    "presupuesto_mano_obra": "58266",
    "presupuesto_Total": "58266",
    "cip_hora_cobrado": "1909",
    "presupuesto_cip": "34362",
    "utilidad_provision": "87372",
    "neto": "180000",
    "bruto": "214200",
    "centro_costo_id": 261
  },
  {
    "unidad_productiva_id": "1",
    "horas_persona": "81",
    "valor_hora_persona": "3971.4444444444443",
    "dias_personas_total": "9",
    "presupuesto_mano_obra": "321687",
    "presupuesto_materiales": "468261",
    "presupuesto_viaticos": "140000",
    "presupuesto_hospedajes": "180000",
    "presupuesto_Total": "1109948",
    "cip_hora_cobrado": "1909",
    "presupuesto_cip": "154629",
    "utilidad_provision": "435852",
    "neto": "1700429",
    "bruto": "2023510.51",
    "centro_costo_id": 262
  },
  {
    "unidad_productiva_id": "1",
    "horas_persona": "18",
    "valor_hora_persona": "3971.4444444444443",
    "dias_personas_total": "2",
    "presupuesto_mano_obra": "71486",
    "presupuesto_materiales": "104280",
    "presupuesto_viaticos": "20000",
    "presupuesto_hospedajes": "30000",
    "presupuesto_Total": "225766",
    "cip_hora_cobrado": "1909",
    "presupuesto_cip": "34362",
    "utilidad_provision": "118045",
    "neto": "378173",
    "bruto": "450025.87",
    "centro_costo_id": 263
  },
  {
    "unidad_productiva_id": "1",
    "horas_persona": "27",
    "valor_hora_persona": "3971.4444444444443",
    "dias_personas_total": "3",
    "presupuesto_mano_obra": "107229",
    "presupuesto_materiales": "257668",
    "presupuesto_viaticos": "30000",
    "presupuesto_hospedajes": "60000",
    "presupuesto_Total": "454897",
    "cip_hora_cobrado": "1909",
    "presupuesto_cip": "51543",
    "utilidad_provision": "197504",
    "neto": "703944",
    "bruto": "837693.36",
    "centro_costo_id": 264
  },
  {
    "unidad_productiva_id": "1",
    "horas_persona": "3",
    "valor_hora_persona": "3971.4444444444443",
    "dias_personas_total": "0.3333333333333333",
    "presupuesto_mano_obra": "11914.333333333332",
    "presupuesto_materiales": "9600",
    "presupuesto_viaticos": "3000",
    "presupuesto_hospedajes": "6000",
    "presupuesto_Total": "30514.333333333332",
    "cip_hora_cobrado": "1909",
    "presupuesto_cip": "5727",
    "utilidad_provision": "18262.666666666668",
    "neto": "54504",
    "bruto": "64859.759999999995",
    "centro_costo_id": 265
  },
  {
    "unidad_productiva_id": "1",
    "valor_hora_persona": "3971.4444444444443",
    "presupuesto_materiales": "50000",
    "presupuesto_Total": "50000",
    "cip_hora_cobrado": "1909",
    "utilidad_provision": "28900",
    "neto": "78900",
    "bruto": "93891",
    "centro_costo_id": 266
  },
  {
    "unidad_productiva_id": "1",
    "valor_hora_persona": "3237.1111111111113",
    "cip_hora_cobrado": "1909",
    "utilidad_provision": "50000",
    "neto": "50000",
    "bruto": "59500",
    "centro_costo_id": 267
  },
  {
    "unidad_productiva_id": "1",
    "valor_hora_persona": "3237",
    "cip_hora_cobrado": "1909",
    "utilidad_provision": "950203",
    "neto": "950203",
    "bruto": "1130741.57",
    "centro_costo_id": 268
  },
  {
    "unidad_productiva_id": "1",
    "horas_persona": "27",
    "valor_hora_persona": "3237",
    "dias_personas_total": "3",
    "presupuesto_mano_obra": "87399",
    "presupuesto_otros": "200000",
    "presupuesto_Total": "287399",
    "cip_hora_cobrado": "1909",
    "presupuesto_cip": "51543",
    "utilidad_provision": "438058",
    "neto": "777000",
    "bruto": "777000",
    "centro_costo_id": 269
  },
  {
    "unidad_productiva_id": "1",
    "horas_persona": "229.5",
    "valor_hora_persona": "3237.1111111111113",
    "dias_personas_total": "25.5",
    "presupuesto_mano_obra": "742917",
    "presupuesto_materiales": "306288",
    "presupuesto_Total": "1049205",
    "cip_hora_cobrado": "1909",
    "presupuesto_cip": "438115.5",
    "utilidad_provision": "401335.5",
    "neto": "1888656",
    "bruto": "2247500.64",
    "centro_costo_id": 270
  },
  {
    "unidad_productiva_id": "1",
    "horas_persona": "76.5",
    "valor_hora_persona": "3237",
    "dias_personas_total": "8.5",
    "presupuesto_mano_obra": "247630.5",
    "presupuesto_Total": "247630.5",
    "cip_hora_cobrado": "1909",
    "presupuesto_cip": "146038.5",
    "utilidad_provision": "569275",
    "neto": "962944",
    "bruto": "1145903.3599999999",
    "centro_costo_id": 271
  },
  {
    "unidad_productiva_id": "1",
    "horas_persona": "18",
    "valor_hora_persona": "3971.4444444444443",
    "dias_personas_total": "2",
    "presupuesto_mano_obra": "71486",
    "presupuesto_materiales": "30000",
    "presupuesto_Total": "101486",
    "cip_hora_cobrado": "1909",
    "presupuesto_cip": "34362",
    "utilidad_provision": "27170",
    "neto": "163018",
    "bruto": "193991.41999999998",
    "centro_costo_id": 272
  },
  {
    "unidad_productiva_id": "1",
    "valor_hora_persona": "3237",
    "cip_hora_cobrado": "1909",
    "utilidad_provision": "1806579",
    "neto": "1806579",
    "bruto": "1806579",
    "centro_costo_id": 273
  },
  {
    "unidad_productiva_id": "1",
    "horas_persona": "27",
    "valor_hora_persona": "3971.4444444444443",
    "dias_personas_total": "3",
    "presupuesto_mano_obra": "107229",
    "presupuesto_materiales": "100000",
    "presupuestos_traslados": "220000",
    "presupuesto_viaticos": "30000",
    "presupuesto_hospedajes": "80000",
    "presupuesto_Total": "537229",
    "cip_hora_cobrado": "1909",
    "presupuesto_cip": "51543",
    "utilidad_provision": "284978",
    "neto": "873750",
    "bruto": "1039762.5",
    "centro_costo_id": 274
  },
  {
    "unidad_productiva_id": "1",
    "horas_persona": "3",
    "valor_hora_persona": "3237",
    "dias_personas_total": "0.3333333333333333",
    "presupuesto_mano_obra": "9711",
    "presupuesto_Total": "9711",
    "cip_hora_cobrado": "1909",
    "presupuesto_cip": "5727",
    "utilidad_provision": "11162",
    "neto": "26600",
    "bruto": "26600",
    "centro_costo_id": 275
  },
  {
    "unidad_productiva_id": "1",
    "valor_hora_persona": "3237",
    "cip_hora_cobrado": "1909",
    "utilidad_provision": "3471460",
    "neto": "3471460",
    "bruto": "3471460",
    "centro_costo_id": 276
  },
  {
    "unidad_productiva_id": "1",
    "valor_hora_persona": "3237",
    "cip_hora_cobrado": "1909",
    "utilidad_provision": "1107964",
    "neto": "1107964",
    "bruto": "1318477.16",
    "centro_costo_id": 277
  },
  {
    "unidad_productiva_id": "1",
    "valor_hora_persona": "3237",
    "cip_hora_cobrado": "1909",
    "utilidad_provision": "715000",
    "neto": "715000",
    "bruto": "850850",
    "centro_costo_id": 278
  },
  {
    "unidad_productiva_id": "1",
    "horas_persona": "27",
    "valor_hora_persona": "3971",
    "dias_personas_total": "3",
    "presupuesto_mano_obra": "107217",
    "presupuesto_materiales": "69036",
    "presupuestos_traslados": "20000",
    "presupuesto_viaticos": "30000",
    "presupuesto_hospedajes": "60000",
    "presupuesto_otros": "10000",
    "presupuesto_Total": "296253",
    "cip_hora_cobrado": "1909",
    "presupuesto_cip": "51543",
    "utilidad_provision": "243350",
    "neto": "591146",
    "bruto": "703463.74",
    "centro_costo_id": 279
  },
  {
    "unidad_productiva_id": "1",
    "horas_persona": "72",
    "valor_hora_persona": "3971",
    "dias_personas_total": "8",
    "presupuesto_mano_obra": "285912",
    "presupuesto_materiales": "115344",
    "presupuesto_viaticos": "120000",
    "presupuesto_hospedajes": "240000",
    "presupuesto_Total": "761256",
    "cip_hora_cobrado": "1909",
    "presupuesto_cip": "137448",
    "utilidad_provision": "308653",
    "neto": "1207357",
    "bruto": "1436754.8299999998",
    "centro_costo_id": 280
  },
  {
    "unidad_productiva_id": "1",
    "horas_persona": "180",
    "valor_hora_persona": "3971",
    "dias_personas_total": "20",
    "presupuesto_mano_obra": "714780",
    "presupuesto_materiales": "1326588",
    "presupuestos_traslados": "200000",
    "presupuesto_viaticos": "300000",
    "presupuesto_hospedajes": "600000",
    "presupuesto_otros": "90000",
    "presupuesto_Total": "3231368",
    "cip_hora_cobrado": "1909",
    "presupuesto_cip": "343620",
    "utilidad_provision": "1072600",
    "neto": "4647588",
    "bruto": "5530629.72",
    "centro_costo_id": 281
  },
  {
    "unidad_productiva_id": "1",
    "valor_hora_persona": "3237.1111111111113",
    "cip_hora_cobrado": "1909",
    "utilidad_provision": "2578198",
    "neto": "2578198",
    "bruto": "2578198",
    "centro_costo_id": 282
  },
  {
    "unidad_productiva_id": "1",
    "valor_hora_persona": "3237",
    "cip_hora_cobrado": "1909",
    "utilidad_provision": "100000",
    "neto": "100000",
    "bruto": "100000",
    "centro_costo_id": 283
  },
  {
    "unidad_productiva_id": "1",
    "valor_hora_persona": "3237",
    "cip_hora_cobrado": "1909",
    "centro_costo_id": 284
  },
  {
    "unidad_productiva_id": "1",
    "horas_persona": "36",
    "valor_hora_persona": "3237",
    "dias_personas_total": "4",
    "presupuesto_mano_obra": "116532",
    "presupuesto_materiales": "121462",
    "presupuesto_Total": "237994",
    "cip_hora_cobrado": "1909",
    "presupuesto_cip": "68724",
    "utilidad_provision": "91546",
    "neto": "398264",
    "bruto": "473934.16",
    "centro_costo_id": 285
  },
  {
    "unidad_productiva_id": "1",
    "valor_hora_persona": "3237",
    "cip_hora_cobrado": "1909",
    "utilidad_provision": "143260",
    "neto": "143260",
    "bruto": "170479.4",
    "centro_costo_id": 286
  },
  {
    "unidad_productiva_id": "1",
    "valor_hora_persona": "3237",
    "cip_hora_cobrado": "1909",
    "utilidad_provision": "1167675",
    "neto": "1167675",
    "bruto": "1389533.25",
    "centro_costo_id": 287
  },
  {
    "unidad_productiva_id": "1",
    "valor_hora_persona": "3237",
    "cip_hora_cobrado": "1909",
    "utilidad_provision": "655877",
    "neto": "655877",
    "bruto": "655877",
    "centro_costo_id": 288
  },
  {
    "unidad_productiva_id": "1",
    "valor_hora_persona": "3237",
    "cip_hora_cobrado": "1909",
    "utilidad_provision": "341055",
    "neto": "341055",
    "bruto": "341055",
    "centro_costo_id": 289
  },
  {
    "unidad_productiva_id": "1",
    "valor_hora_persona": "3237",
    "cip_hora_cobrado": "1909",
    "utilidad_provision": "663312",
    "neto": "663312",
    "bruto": "789341.2799999999",
    "centro_costo_id": 290
  },
  {
    "unidad_productiva_id": "1",
    "valor_hora_persona": "3237",
    "cip_hora_cobrado": "1909",
    "utilidad_provision": "75000",
    "neto": "75000",
    "bruto": "75000",
    "centro_costo_id": 291
  },
  {
    "unidad_productiva_id": "1",
    "valor_hora_persona": "3237",
    "cip_hora_cobrado": "1909",
    "utilidad_provision": "3531748",
    "neto": "3531748",
    "bruto": "3531748",
    "centro_costo_id": 292
  },
  {
    "unidad_productiva_id": "1",
    "valor_hora_persona": "3237",
    "cip_hora_cobrado": "1909",
    "utilidad_provision": "810000",
    "neto": "810000",
    "bruto": "810000",
    "centro_costo_id": 293
  },
  {
    "unidad_productiva_id": "1",
    "valor_hora_persona": "3237",
    "cip_hora_cobrado": "1909",
    "utilidad_provision": "14286",
    "neto": "14286",
    "bruto": "17000",
    "centro_costo_id": 294
  },
  {
    "unidad_productiva_id": "1",
    "horas_persona": "25",
    "valor_hora_persona": "3237",
    "dias_personas_total": "2.7777777777777777",
    "presupuesto_mano_obra": "80925",
    "presupuesto_Total": "80925",
    "cip_hora_cobrado": "1909",
    "presupuesto_cip": "47725",
    "utilidad_provision": "271350",
    "neto": "400000",
    "bruto": "400000",
    "centro_costo_id": 295
  },
  {
    "unidad_productiva_id": "1",
    "valor_hora_persona": "3237",
    "cip_hora_cobrado": "1909",
    "utilidad_provision": "541766",
    "neto": "541766",
    "bruto": "644701.5399999999",
    "centro_costo_id": 296
  },
  {
    "unidad_productiva_id": "1",
    "valor_hora_persona": "3237",
    "cip_hora_cobrado": "1909",
    "utilidad_provision": "82846361",
    "neto": "82846361",
    "bruto": "98587169.58999999",
    "centro_costo_id": 297
  },
  {
    "unidad_productiva_id": "1",
    "valor_hora_persona": "3237",
    "cip_hora_cobrado": "1909",
    "centro_costo_id": 298
  },
  {
    "unidad_productiva_id": "1",
    "valor_hora_persona": "3237",
    "cip_hora_cobrado": "1909",
    "utilidad_provision": "250000",
    "neto": "250000",
    "bruto": "250000",
    "centro_costo_id": 299
  },
  {
    "unidad_productiva_id": "1",
    "valor_hora_persona": "3237",
    "cip_hora_cobrado": "1909",
    "utilidad_provision": "3832911",
    "neto": "3832911",
    "bruto": "3832911",
    "centro_costo_id": 300
  },
  {
    "unidad_productiva_id": "1",
    "valor_hora_persona": "3237",
    "cip_hora_cobrado": "1909",
    "utilidad_provision": "16140000",
    "neto": "16140000",
    "bruto": "19206600",
    "centro_costo_id": 301
  },
  {
    "unidad_productiva_id": "1",
    "valor_hora_persona": "3237",
    "cip_hora_cobrado": "1909",
    "centro_costo_id": 302
  },
  {
    "unidad_productiva_id": "1",
    "valor_hora_persona": "3237",
    "cip_hora_cobrado": "1909",
    "utilidad_provision": "12281842",
    "neto": "12281842",
    "bruto": "14615391.979999999",
    "centro_costo_id": 303
  },
  {
    "unidad_productiva_id": "1",
    "valor_hora_persona": "3237",
    "cip_hora_cobrado": "1909",
    "utilidad_provision": "2132327.731092437",
    "neto": "2132327.731092437",
    "bruto": "2537470",
    "centro_costo_id": 304
  },
  {
    "unidad_productiva_id": "1",
    "valor_hora_persona": "3237",
    "cip_hora_cobrado": "1909",
    "utilidad_provision": "295875",
    "neto": "295875",
    "bruto": "295875",
    "centro_costo_id": 305
  },
  {
    "unidad_productiva_id": "1",
    "centro_costo_id": 306
  },
  {
    "unidad_productiva_id": "1",
    "centro_costo_id": 307
  }
]