[
	{
		"id": "1",
		"unidad_productiva_id": "1",
		"rut": "35526986",
		"nombre": "Juan Andres Osorio Valenzuela",
		"nombre_presentacion": "Juan Andres Osorio Valenzuela"
	},
	{
		"id": "2",
		"unidad_productiva_id": "1",
		"rut": "46066464",
		"nombre": "Carlos Trincado Espinoza",
		"nombre_presentacion": "Carlos Trincado Espinoza"
	},
	{
		"id": "3",
		"unidad_productiva_id": "1",
		"rut": "46666410",
		"nombre": "Isabel Esterbina Maltes Jaramillo",
		"nombre_presentacion": "Isabel Esterbina Maltes Jaramillo"
	},
	{
		"id": "4",
		"unidad_productiva_id": "1",
		"rut": "49103220",
		"nombre": "Cesar Antonio Arcos Contreras",
		"nombre_presentacion": "Cesar Antonio Arcos Contreras"
	},
	{
		"id": "5",
		"unidad_productiva_id": "1",
		"rut": "51225856",
		"nombre": "Jorge Eduardo Villaroel Velasco",
		"nombre_presentacion": "Jorge Eduardo Villaroel Velasco"
	},
	{
		"id": "6",
		"unidad_productiva_id": "1",
		"rut": "57174056",
		"nombre": "Jose Fernando Carroza Gaete",
		"nombre_presentacion": "Jose Fernando Carroza Gaete"
	},
	{
		"id": "7",
		"unidad_productiva_id": "1",
		"rut": "60474354",
		"nombre": "Jorge Henrique Delard De Rigoulieres Pizarro",
		"nombre_presentacion": "Jorge Henrique Delard De Rigoulieres Pizarro",
		"comentarios": "proveedores teleton norte"
	},
	{
		"id": "8",
		"unidad_productiva_id": "1",
		"rut": "7197216K",
		"nombre": "Fernando Omar Arredondo Santibaã±Ez",
		"nombre_presentacion": "Fernando Omar Arredondo Santibañez"
	},
	{
		"id": "9",
		"unidad_productiva_id": "1",
		"rut": "77322930",
		"nombre": "Flavio Esteban Bustamante Munoz",
		"nombre_presentacion": "Flavio Esteban Bustamante Munoz"
	},
	{
		"id": "10",
		"unidad_productiva_id": "1",
		"rut": "85650904",
		"nombre": "Gloria Margarita Vidal Tobar",
		"nombre_presentacion": "Gloria Margarita Vidal Tobar"
	},
	{
		"id": "11",
		"unidad_productiva_id": "1",
		"rut": "86856069",
		"nombre": "Raymond Nelson Vargas Fernandez",
		"nombre_presentacion": "Raymond Nelson Vargas Fernandez"
	},
	{
		"id": "12",
		"unidad_productiva_id": "1",
		"rut": "98992642",
		"nombre": "Jose Luis Guerrero Zuloaga",
		"nombre_presentacion": "Jose Luis Guerrero Zuloaga"
	},
	{
		"id": "13",
		"unidad_productiva_id": "1",
		"rut": "100301229",
		"nombre": "Cristian Andres Broudissond Espinoza",
		"nombre_presentacion": "Cristian Andres Broudissond Espinoza"
	},
	{
		"id": "14",
		"unidad_productiva_id": "1",
		"rut": "10352489K",
		"nombre": "Cherry Fabiola Zarate Abarca",
		"nombre_presentacion": "Cherry Fabiola Zarate Abarca"
	},
	{
		"id": "15",
		"unidad_productiva_id": "1",
		"rut": "105064535",
		"nombre": "Rosenda Mercedes Chureo Cuitino",
		"nombre_presentacion": "Rosenda Mercedes Chureo Cuitino",
		"giro": "Ferretería",
		"direcciones": "Matucana 61 69, Santiago",
		"telefono": "96783934\"}"
	},
	{
		"id": "16",
		"unidad_productiva_id": "1",
		"rut": "124467608",
		"nombre": "Oscar Alejandro Herrera Guajardo",
		"nombre_presentacion": "Oscar Alejandro Herrera Guajardo"
	},
	{
		"id": "17",
		"unidad_productiva_id": "1",
		"rut": "126165455",
		"nombre": "Fernando Modesto Flores Baltazar",
		"nombre_presentacion": "Fernando Modesto Flores Baltazar",
		"comentarios": "proveedores teleton norte"
	},
	{
		"id": "18",
		"unidad_productiva_id": "1",
		"rut": "130930301",
		"nombre": "Zulema Aida Guerrero Zuloaga",
		"nombre_presentacion": "Zulema Aida Guerrero Zuloaga"
	},
	{
		"id": "19",
		"unidad_productiva_id": "1",
		"rut": "142746123",
		"nombre": "Jose Manuel Sanchez Rojas",
		"nombre_presentacion": "Ferreteria Pepe Farema",
		"giro": "Ferretería",
		"direcciones": "Av presidente prieto 356, paine."
	},
	{
		"id": "20",
		"unidad_productiva_id": "1",
		"rut": "16625180K",
		"nombre": "Fernando Andres Arce Maraboli",
		"nombre_presentacion": "Fernando Andres Arce Maraboli"
	},
	{
		"id": "21",
		"unidad_productiva_id": "1",
		"rut": "531875001",
		"nombre": "Suc Ivan Herrero Perez",
		"nombre_presentacion": "Suc Ivan Herrero Perez",
		"comentarios": "proveedores teleton norte"
	},
	{
		"id": "22",
		"unidad_productiva_id": "1",
		"rut": "533240690",
		"nombre": "Ferreteria Marabboli Y Gonzalez",
		"nombre_presentacion": "Ferreteria Marabboli Y Gonzalez"
	},
	{
		"id": "23",
		"unidad_productiva_id": "1",
		"rut": "609100001",
		"nombre": "Universidad De Chile",
		"nombre_presentacion": "Universidad De Chile"
	},
	{
		"id": "24",
		"unidad_productiva_id": "1",
		"rut": "651067693",
		"nombre": "Cooperativa De Trabajo Cokutral",
		"nombre_presentacion": "Kutral"
	},
	{
		"id": "25",
		"unidad_productiva_id": "1",
		"rut": "651085489",
		"nombre": "Cooperativa De Trabajo Coocrear",
		"nombre_presentacion": "Coocrear"
	},
	{
		"id": "26",
		"unidad_productiva_id": "1",
		"rut": "760040487",
		"nombre": "Dartel Copiapo Limitada",
		"nombre_presentacion": "Dartel Copiapo Limitada",
		"comentarios": "proveedores teleton norte"
	},
	{
		"id": "27",
		"unidad_productiva_id": "1",
		"rut": "760057231",
		"nombre": "Inversiones Y Servicios Industriales Del Norte Grande Limitada",
		"nombre_presentacion": "Inversiones Y Servicios Industriales Del Norte Grande Limitada",
		"giro": "hospedaje",
		"direcciones": "pasaje michilla 4221, Antofagasta"
	},
	{
		"id": "28",
		"unidad_productiva_id": "1",
		"rut": "760060046",
		"nombre": "Servicios De Pintura Electroestatica Y Tableros H",
		"nombre_presentacion": "Servicios De Pintura Electroestatica Y Tableros H"
	},
	{
		"id": "29",
		"unidad_productiva_id": "1",
		"rut": "760092568",
		"nombre": "Comercializadora De Materiales De Construcci N Y E",
		"nombre_presentacion": "Comercializadora De Materiales De Construcci N Y E"
	},
	{
		"id": "30",
		"unidad_productiva_id": "1",
		"rut": "76047195K",
		"nombre": "Comercial Aristides Arriagada Guajardo E I R L",
		"nombre_presentacion": "Comercial Aristides Arriagada Guajardo E I R L"
	},
	{
		"id": "31",
		"unidad_productiva_id": "1",
		"rut": "760808474",
		"nombre": "Manuel Hevia Quincalleria Y Ferreteria E",
		"nombre_presentacion": "Manuel Hevia Quincalleria Y Ferreteria E"
	},
	{
		"id": "32",
		"unidad_productiva_id": "1",
		"rut": "76085400K",
		"nombre": "Elfle Comercial Dos Ltda",
		"nombre_presentacion": "Elfle Comercial Dos Ltda"
	},
	{
		"id": "33",
		"unidad_productiva_id": "1",
		"rut": "76086546k",
		"nombre": "UnidadProductivas De Servicios Logisticos Fecyc Spa",
		"nombre_presentacion": "UnidadProductivas De Servicios Logisticos Fecyc Spa",
		"giro": "Encomienda"
	},
	{
		"id": "34",
		"unidad_productiva_id": "1",
		"rut": "760877859",
		"nombre": "Transportes Emetra Ltda",
		"nombre_presentacion": "Transportes Emetra Ltda"
	},
	{
		"id": "35",
		"unidad_productiva_id": "1",
		"rut": "760902195",
		"nombre": "Patricio Hernandez Proyectos Y Montajes Elec Ltda",
		"nombre_presentacion": "Patricio Hernandez Proyectos Y Montajes Elec Ltda"
	},
	{
		"id": "36",
		"unidad_productiva_id": "1",
		"rut": "761097210",
		"nombre": "Mondo Di Legno S P A",
		"nombre_presentacion": "Mondo Di Legno S P A"
	},
	{
		"id": "37",
		"unidad_productiva_id": "1",
		"rut": "761131273",
		"nombre": "Garrido Service Limitada",
		"nombre_presentacion": "Garrido Service Limitada"
	},
	{
		"id": "38",
		"unidad_productiva_id": "1",
		"rut": "761349414",
		"nombre": "Admin De Supermercados Hiper Limitada",
		"nombre_presentacion": "Admin De Supermercados Hiper Limitada"
	},
	{
		"id": "39",
		"unidad_productiva_id": "1",
		"rut": "761414178",
		"nombre": "Embalajes Matta S A",
		"nombre_presentacion": "Embalajes Matta S A"
	},
	{
		"id": "40",
		"unidad_productiva_id": "1",
		"rut": "761672967",
		"nombre": "Comercial Rubio E Hijos Ltda",
		"nombre_presentacion": "Comercial Rubio E Hijos Ltda"
	},
	{
		"id": "41",
		"unidad_productiva_id": "1",
		"rut": "761701185",
		"nombre": "Valenzuela Y Sanchez Ltda",
		"nombre_presentacion": "Valenzuela Y Sanchez Ltda"
	},
	{
		"id": "42",
		"unidad_productiva_id": "1",
		"rut": "761783602",
		"nombre": "Central De Restaurantes Aramark Limitada",
		"nombre_presentacion": "Central De Restaurantes Aramark Limitada"
	},
	{
		"id": "43",
		"unidad_productiva_id": "1",
		"rut": "76211240K",
		"nombre": "Transportes Tecnologia Y Giros Egt Ltda",
		"nombre_presentacion": "Transportes Tecnologia Y Giros Egt Ltda"
	},
	{
		"id": "44",
		"unidad_productiva_id": "1",
		"rut": "762167972",
		"nombre": "Dartel La Serena Ltda",
		"nombre_presentacion": "Dartel La Serena Ltda"
	},
	{
		"id": "45",
		"unidad_productiva_id": "1",
		"rut": "762633280",
		"nombre": "Ferreteria Sandra Lidia Vea Cabreras Eirl",
		"nombre_presentacion": "Ferreteria Sandra Lidia Vea Cabreras Eirl"
	},
	{
		"id": "46",
		"unidad_productiva_id": "1",
		"rut": "76361221K",
		"nombre": "Ferreterias Madrigal Noriega Spa",
		"nombre_presentacion": "Ferreterias Madrigal Noriega Spa"
	},
	{
		"id": "47",
		"unidad_productiva_id": "1",
		"rut": "763618935",
		"nombre": "Inversiones Vespucci Atacama Spa",
		"nombre_presentacion": "Inversiones Vespucci Atacama Spa",
		"giro": "Hoteles",
		"direcciones": "Colipi 794, copiapo"
	},
	{
		"id": "48",
		"unidad_productiva_id": "1",
		"rut": "763699994",
		"nombre": "Insumax Spa",
		"nombre_presentacion": "Insumax Spa"
	},
	{
		"id": "49",
		"unidad_productiva_id": "1",
		"rut": "764328647",
		"nombre": "Administradora De Restaurantes Juan Allendes Spa",
		"nombre_presentacion": "Administradora De Restaurantes Juan Allendes Spa"
	},
	{
		"id": "50",
		"unidad_productiva_id": "1",
		"rut": "764733134",
		"nombre": "Servicio Mcc Spa",
		"nombre_presentacion": "Servicio Mcc Spa"
	},
	{
		"id": "51",
		"unidad_productiva_id": "1",
		"rut": "765242304",
		"nombre": "Dartel Calama Limitada",
		"nombre_presentacion": "Dartel Calama Limitada",
		"comentarios": "proveedores teleton norte"
	},
	{
		"id": "52",
		"unidad_productiva_id": "1",
		"rut": "765686601",
		"nombre": "Easy Retail S A",
		"nombre_presentacion": "Easy Retail S A"
	},
	{
		"id": "53",
		"unidad_productiva_id": "1",
		"rut": "766775381",
		"nombre": "Ignacio Lillo Comercial E.I.R.L.",
		"nombre_presentacion": "Ignacio Lillo Comercial E.I.R.L.",
		"comentarios": "proveedores teleton norte"
	},
	{
		"id": "54",
		"unidad_productiva_id": "1",
		"rut": "766924700",
		"nombre": "Servicio Tecnico E Integral Max Plus",
		"nombre_presentacion": "Servicio Tecnico E Integral Max Plus"
	},
	{
		"id": "55",
		"unidad_productiva_id": "1",
		"rut": "768213305",
		"nombre": "Imperial S A",
		"nombre_presentacion": "Imperial SA"
	},
	{
		"id": "56",
		"unidad_productiva_id": "1",
		"rut": "768337209",
		"nombre": "Abarrotes Economicos S A",
		"nombre_presentacion": "Abarrotes Economicos S A"
	},
	{
		"id": "57",
		"unidad_productiva_id": "1",
		"rut": "768518203",
		"nombre": "Caso Llona Sociedad Anonima",
		"nombre_presentacion": "Okey SA",
		"giro": "Ferretería",
		"direcciones": "JJ Perez 5717 quinta normal"
	},
	{
		"id": "58",
		"unidad_productiva_id": "1",
		"rut": "769271600",
		"nombre": "Sociedad Comercial Wu Y Pazzanese Limitada",
		"nombre_presentacion": "LedStudio"
	},
	{
		"id": "59",
		"unidad_productiva_id": "1",
		"rut": "769591109",
		"nombre": "Patricio Reyes Silva Eirl",
		"nombre_presentacion": "Patricio Reyes Silva Eirl"
	},
	{
		"id": "60",
		"unidad_productiva_id": "1",
		"rut": "770465400",
		"nombre": "Vidrieria El Bosque Ltda",
		"nombre_presentacion": "Vidrieria El Bosque Ltda"
	},
	{
		"id": "61",
		"unidad_productiva_id": "1",
		"rut": "772065604",
		"nombre": "Grabados Quevedo Y Compa Ia Limitada",
		"nombre_presentacion": "Grabados Quevedo Y Compa Ia Limitada"
	},
	{
		"id": "62",
		"unidad_productiva_id": "1",
		"rut": "774515704",
		"nombre": "Noriega Materiales De Construccion Ltda",
		"nombre_presentacion": "Noriega Materiales De Construccion Ltda"
	},
	{
		"id": "63",
		"unidad_productiva_id": "1",
		"rut": "776557307",
		"nombre": "Sociedad Puelles Leiva Limitada",
		"nombre_presentacion": "EXTRAELEC",
		"giro": "materiales eléctricos",
		"direcciones": "Van Buren 2636, Valparaiso",
		"telefono": "32 2545850",
		"correo": "ventas@extraelec.cl"
	},
	{
		"id": "64",
		"unidad_productiva_id": "1",
		"rut": "777085409",
		"nombre": "Importadora Downlight Ltda",
		"nombre_presentacion": "Importadora Downlight Ltda"
	},
	{
		"id": "65",
		"unidad_productiva_id": "1",
		"rut": "778124904",
		"nombre": "Ceramicas Alvarrado Limitada",
		"nombre_presentacion": "Ceramicas Alvarrado Limitada"
	},
	{
		"id": "66",
		"unidad_productiva_id": "1",
		"rut": "77910480K",
		"nombre": "Distribuidora Y Comercializadora Terraweld Limitad",
		"nombre_presentacion": "Distribuidora Y Comercializadora Terraweld Limitad"
	},
	{
		"id": "67",
		"unidad_productiva_id": "1",
		"rut": "78016350K",
		"nombre": "Soc Comercial Brasil Ltda",
		"nombre_presentacion": "Soc Comercial Brasil Ltda"
	},
	{
		"id": "68",
		"unidad_productiva_id": "1",
		"rut": "780766107",
		"nombre": "Inversiones Kad Limitada",
		"nombre_presentacion": "Inversiones Kad Limitada"
	},
	{
		"id": "69",
		"unidad_productiva_id": "1",
		"rut": "783600307",
		"nombre": "Distribuidora De Articulos Electricos Antofagasta Limitada",
		"nombre_presentacion": "Distribuidora De Articulos Electricos Antofagasta Limitada",
		"comentarios": "proveedores teleton norte"
	},
	{
		"id": "70",
		"unidad_productiva_id": "1",
		"rut": "786272106",
		"nombre": "Hipermercados Tottus S A",
		"nombre_presentacion": "Hipermercados Tottus S A"
	},
	{
		"id": "71",
		"unidad_productiva_id": "1",
		"rut": "788564600",
		"nombre": "Soc Comercial Avalos Carroza Limitada",
		"nombre_presentacion": "Avalos Carroza Ltda"
	},
	{
		"id": "72",
		"unidad_productiva_id": "1",
		"rut": "788855508",
		"nombre": "Personal Computer Factory S A",
		"nombre_presentacion": "Personal Computer Factory S A"
	},
	{
		"id": "73",
		"unidad_productiva_id": "1",
		"rut": "789843309",
		"nombre": "Sociedad Comercial Rubio Y Rubio Limitada",
		"nombre_presentacion": "Sociedad Comercial Rubio Y Rubio Limitada"
	},
	{
		"id": "74",
		"unidad_productiva_id": "1",
		"rut": "795036202",
		"nombre": "Comercial Llagostera Ltda",
		"nombre_presentacion": "Comercial Llagostera Ltda"
	},
	{
		"id": "75",
		"unidad_productiva_id": "1",
		"rut": "795507302",
		"nombre": "Comercial Larrain Sa",
		"nombre_presentacion": "Comercial Larrain Sa"
	},
	{
		"id": "76",
		"unidad_productiva_id": "1",
		"rut": "795638105",
		"nombre": "Sociedad Comercial Mario Rojas Baez",
		"nombre_presentacion": "Sociedad Comercial Mario Rojas Baez"
	},
	{
		"id": "77",
		"unidad_productiva_id": "1",
		"rut": "796231009",
		"nombre": "Distribuidora De Materiales De Ferreteria Y Constr",
		"nombre_presentacion": "Distribuidora De Materiales De Ferreteria Y Constr"
	},
	{
		"id": "78",
		"unidad_productiva_id": "1",
		"rut": "798801007",
		"nombre": "Comercial Roca Ltda",
		"nombre_presentacion": "Comercial Roca Ltda"
	},
	{
		"id": "79",
		"unidad_productiva_id": "1",
		"rut": "798808702",
		"nombre": "Comercial Rey Ltda",
		"nombre_presentacion": "Comercial Rey Ltda"
	},
	{
		"id": "80",
		"unidad_productiva_id": "1",
		"rut": "79895640K",
		"nombre": "Central De Pernos Ltda",
		"nombre_presentacion": "Central De Pernos Ltda"
	},
	{
		"id": "81",
		"unidad_productiva_id": "1",
		"rut": "799039206",
		"nombre": "Comercial Hispano Chilena Ltda",
		"nombre_presentacion": "Comercial Hispano Chilena Ltda"
	},
	{
		"id": "82",
		"unidad_productiva_id": "1",
		"rut": "799131609",
		"nombre": "Suministros Telefonicos Y Comput Estec Ltda",
		"nombre_presentacion": "Suministros Telefonicos Y Comput Estec Ltda"
	},
	{
		"id": "83",
		"unidad_productiva_id": "1",
		"rut": "803147000",
		"nombre": "UnidadProductiva De Transportes Rurales Limitada",
		"nombre_presentacion": "UnidadProductiva De Transportes Rurales Limitada"
	},
	{
		"id": "84",
		"unidad_productiva_id": "1",
		"rut": "804098003",
		"nombre": "Electricidad Gobantes S A",
		"nombre_presentacion": "Electricidad Gobantes S A"
	},
	{
		"id": "85",
		"unidad_productiva_id": "1",
		"rut": "804782001",
		"nombre": "Ilop S A",
		"nombre_presentacion": "Ilop S A"
	},
	{
		"id": "86",
		"unidad_productiva_id": "1",
		"rut": "80706200K",
		"nombre": "Patricio Otero F Y Cia",
		"nombre_presentacion": "Patricio Otero F Y Cia"
	},
	{
		"id": "87",
		"unidad_productiva_id": "1",
		"rut": "808305003",
		"nombre": "Comercial Satex Ltda",
		"nombre_presentacion": "Comercial Satex Ltda"
	},
	{
		"id": "88",
		"unidad_productiva_id": "1",
		"rut": "808514001",
		"nombre": "Ferreteria Antofagasta Limitada",
		"nombre_presentacion": "Ferreteria Antofagasta Limitada"
	},
	{
		"id": "89",
		"unidad_productiva_id": "1",
		"rut": "811050008",
		"nombre": "Villalba S.A.",
		"nombre_presentacion": "Villalba S.A."
	},
	{
		"id": "90",
		"unidad_productiva_id": "1",
		"rut": "811137006",
		"nombre": "Agricola Y Forestal Bagaro Ltda",
		"nombre_presentacion": "Agricola Y Forestal Bagaro Ltda"
	},
	{
		"id": "91",
		"unidad_productiva_id": "1",
		"rut": "81201000K",
		"nombre": "Cencosud Retail S A",
		"nombre_presentacion": "Cencosud Retail S A"
	},
	{
		"id": "92",
		"unidad_productiva_id": "1",
		"rut": "812932004",
		"nombre": "Ausin Hnos S.A.",
		"nombre_presentacion": "Ausin Hnos S.A."
	},
	{
		"id": "93",
		"unidad_productiva_id": "1",
		"rut": "817563007",
		"nombre": "Villar Hermanos S A",
		"nombre_presentacion": "Villar Hermanos S A"
	},
	{
		"id": "94",
		"unidad_productiva_id": "1",
		"rut": "829209004",
		"nombre": "Industria Nacional De Tejidos De Alambre Limitad",
		"nombre_presentacion": "Industria Nacional De Tejidos De Alambre Limitad"
	},
	{
		"id": "95",
		"unidad_productiva_id": "1",
		"rut": "830306005",
		"nombre": "Electronica Casa Royal Ltda",
		"nombre_presentacion": "Electronica Casa Royal Ltda"
	},
	{
		"id": "96",
		"unidad_productiva_id": "1",
		"rut": "831624000",
		"nombre": "Emaresa Ingenieros Y Representaciones S.A.",
		"nombre_presentacion": "Emaresa Ingenieros Y Representaciones S.A.",
		"giro": "Maquinaria herramientas",
		"direcciones": "santa adela 9901 Maipu"
	},
	{
		"id": "97",
		"unidad_productiva_id": "1",
		"rut": "855586002",
		"nombre": "Telectra Electronica Ltda",
		"nombre_presentacion": "Telectra Electronica Ltda"
	},
	{
		"id": "98",
		"unidad_productiva_id": "1",
		"rut": "858316006",
		"nombre": "Yousef Comercial Ltda",
		"nombre_presentacion": "Yousef Comercial Ltda"
	},
	{
		"id": "99",
		"unidad_productiva_id": "1",
		"rut": "859691005",
		"nombre": "Manufacturas Electricas Byp Ltda",
		"nombre_presentacion": "Manufacturas Electricas Byp Ltda"
	},
	{
		"id": "100",
		"unidad_productiva_id": "1",
		"rut": "869632007",
		"nombre": "Forus S A",
		"nombre_presentacion": "Forus S A"
	},
	{
		"id": "101",
		"unidad_productiva_id": "1",
		"rut": "877732002",
		"nombre": "Dartel Valparaiso Ltda",
		"nombre_presentacion": "Dartel Valparaiso Ltda"
	},
	{
		"id": "102",
		"unidad_productiva_id": "1",
		"rut": "879107008",
		"nombre": "Maria Nazar Misleh Y Cia Ltda",
		"nombre_presentacion": "Maria Nazar Misleh Y Cia Ltda"
	},
	{
		"id": "103",
		"unidad_productiva_id": "1",
		"rut": "898072002",
		"nombre": "Farmacias Cruz Verde S A",
		"nombre_presentacion": "Farmacias Cruz Verde S A"
	},
	{
		"id": "104",
		"unidad_productiva_id": "1",
		"rut": "898622002",
		"nombre": "Latam Airlines Group S.A.",
		"nombre_presentacion": "Latam Airlines Group S.A.",
		"giro": "Aerolinea"
	},
	{
		"id": "105",
		"unidad_productiva_id": "1",
		"rut": "923070001",
		"nombre": "Rhona S A",
		"nombre_presentacion": "Rhona S A"
	},
	{
		"id": "106",
		"unidad_productiva_id": "1",
		"rut": "926420003",
		"nombre": "Artel S A I C",
		"nombre_presentacion": "Artel S A I C"
	},
	{
		"id": "107",
		"unidad_productiva_id": "1",
		"rut": "936890008",
		"nombre": "Casa Musa Electronica S A",
		"nombre_presentacion": "Casa Musa Electronica S A"
	},
	{
		"id": "108",
		"unidad_productiva_id": "1",
		"rut": "937720009",
		"nombre": "Prodalam S.A.",
		"nombre_presentacion": "Prodalam S.A."
	},
	{
		"id": "109",
		"unidad_productiva_id": "1",
		"rut": "947070002",
		"nombre": "Ferreteria Covadonga Limitada",
		"nombre_presentacion": "Ferreteria Covadonga Limitada"
	},
	{
		"id": "110",
		"unidad_productiva_id": "1",
		"rut": "949520005",
		"nombre": "Transandina De Comercio S.A.",
		"nombre_presentacion": "Transaco",
		"giro": "Materiales de la construcción"
	},
	{
		"id": "111",
		"unidad_productiva_id": "1",
		"rut": "950020008",
		"nombre": "Pina Hermanos S A",
		"nombre_presentacion": "Pina Hermanos S A"
	},
	{
		"id": "112",
		"unidad_productiva_id": "1",
		"rut": "963550006",
		"nombre": "Electrocom S A",
		"nombre_presentacion": "Electrocom S A"
	},
	{
		"id": "113",
		"unidad_productiva_id": "1",
		"rut": "965114602",
		"nombre": "Sucursal Las Rejas",
		"nombre_presentacion": "Sucursal Las Rejas"
	},
	{
		"id": "114",
		"unidad_productiva_id": "1",
		"rut": "966368209",
		"nombre": "Mjm Spa",
		"nombre_presentacion": "Mjm Spa"
	},
	{
		"id": "115",
		"unidad_productiva_id": "1",
		"rut": "966881704",
		"nombre": "Sociedad Maderera Corderos S.A",
		"nombre_presentacion": "Sociedad Maderera Corderos S.A",
		"giro": "Distibuidora de maderas",
		"direcciones": "san pablo 4564, quinta normal",
		"telefono": "227744856\"}"
	},
	{
		"id": "116",
		"unidad_productiva_id": "1",
		"rut": "966974109",
		"nombre": "Entel Telefonia Local S A",
		"nombre_presentacion": "Entel Telefonia Local S A"
	},
	{
		"id": "117",
		"unidad_productiva_id": "1",
		"rut": "967564303",
		"nombre": "Chilexpress S A",
		"nombre_presentacion": "Chilexpress S A"
	},
	{
		"id": "118",
		"unidad_productiva_id": "1",
		"rut": "96792430K",
		"nombre": "Sodimac S A",
		"nombre_presentacion": "Sodimac S A"
	},
	{
		"id": "119",
		"unidad_productiva_id": "1",
		"rut": "968036904",
		"nombre": "UnidadProductivas Dmg S A",
		"nombre_presentacion": "UnidadProductivas Dmg S A"
	},
	{
		"id": "120",
		"unidad_productiva_id": "1",
		"rut": "968061100",
		"nombre": "Dartel S A",
		"nombre_presentacion": "Dartel S A"
	},
	{
		"id": "121",
		"unidad_productiva_id": "1",
		"rut": "968069802",
		"nombre": "Entel Pcs Telecomunicaciones S A",
		"nombre_presentacion": "Entel Pcs Telecomunicaciones S A"
	},
	{
		"id": "122",
		"unidad_productiva_id": "1",
		"rut": "968872508",
		"nombre": "Ferreteria La Bomba S A",
		"nombre_presentacion": "Ferreteria La Bomba S A"
	},
	{
		"id": "123",
		"unidad_productiva_id": "1",
		"rut": "968899503",
		"nombre": "Garmendia Macus S A",
		"nombre_presentacion": "Garmendia Macus S A"
	},
	{
		"id": "124",
		"unidad_productiva_id": "1",
		"rut": "97036000K",
		"nombre": "Santander Chile",
		"nombre_presentacion": "Santander Chile"
	},
	{
		"id": "125",
		"unidad_productiva_id": "1",
		"rut": "995732807",
		"nombre": "Importadora Reoleta Sa",
		"nombre_presentacion": "Importadora Reoleta Sa"
	},
	{
		"id": "126",
		"unidad_productiva_id": "1",
		"rut": "760873233",
		"nombre": "Emesa S.A.",
		"nombre_presentacion": "Emesa S.A."
	},
	{
		"id": "127",
		"unidad_productiva_id": "1",
		"rut": "787312705",
		"nombre": "Sociedad Ndu Ingenieria Ltda",
		"nombre_presentacion": "NDU Ingeniería"
	},
	{
		"id": "128",
		"unidad_productiva_id": "1",
		"rut": "135722596",
		"nombre": "Nelson Gabriel Gomez Fuenzalida  ",
		"nombre_presentacion": "Nelson Gabriel Gomez Fuenzalida  "
	},
	{
		"id": "129",
		"unidad_productiva_id": "1",
		"rut": "767566301",
		"nombre": "Comercial Vasquez Y Cia Ltda",
		"nombre_presentacion": "Comercial Vasquez"
	},
	{
		"id": "130",
		"unidad_productiva_id": "1",
		"rut": "777251007",
		"nombre": "Ceramicas Y Materiales De Construccion L",
		"nombre_presentacion": "Ceramicas Y Materiales De Construccion L"
	},
	{
		"id": "131",
		"unidad_productiva_id": "1",
		"rut": "928190005",
		"nombre": "Feltrx S A",
		"nombre_presentacion": "Feltrx S A"
	},
	{
		"id": "132",
		"unidad_productiva_id": "1",
		"rut": "833364006",
		"nombre": "Comercial Gomilandia Ltda",
		"nombre_presentacion": "Comercial Gomilandia Ltda"
	},
	{
		"id": "133",
		"unidad_productiva_id": "1",
		"rut": "762849569",
		"nombre": "Importadora Y Exp Binfu Ltda",
		"nombre_presentacion": "BINFU LTDA"
	},
	{
		"id": "134",
		"unidad_productiva_id": "1",
		"rut": "69588832",
		"nombre": "Mario Alejandro Mukarker Mukarker",
		"nombre_presentacion": "Mario Alejandro Mukarker Mukarker"
	},
	{
		"id": "135",
		"unidad_productiva_id": "1",
		"rut": "775955805",
		"nombre": "Maestranza Nacional Limitada",
		"nombre_presentacion": "Maestranza Nacional Limitada",
		"giro": "fabricacion de productos metalicos de uso industrial"
	},
	{
		"id": "136",
		"unidad_productiva_id": "1",
		"rut": "78454530k",
		"nombre": "Automotriz Estacion Limitada",
		"nombre_presentacion": "Automotriz Estacion Limitada",
		"giro": "Arriendo de vehiculos",
		"telefono": "227790609",
		"correo": "info@arac.cl"
	},
	{
		"id": "137",
		"unidad_productiva_id": "1",
		"rut": "762872641",
		"nombre": "Fugas UnidadProductiva De Asesorias Limitada",
		"nombre_presentacion": "Fugas UnidadProductiva De Asesorias Limitada"
	},
	{
		"id": "138",
		"unidad_productiva_id": "1",
		"rut": "766217745",
		"nombre": "Infocolor Fuentes Catalan Limitada",
		"nombre_presentacion": "Infocolor Fuentes Catalan Limitada",
		"giro": "ferretería y pintura"
	},
	{
		"id": "139",
		"unidad_productiva_id": "1",
		"rut": "702851009",
		"nombre": "Mutual De Seguridad",
		"nombre_presentacion": "Mutual De Seguridad"
	},
	{
		"id": "140",
		"unidad_productiva_id": "1",
		"rut": "801926002",
		"nombre": "Textil Chafik Nallar Hijos Limitada",
		"nombre_presentacion": "Textil Chafik Nallar Hijos Limitada",
		"giro": "ropa corporativa"
	},
	{
		"id": "141",
		"unidad_productiva_id": "1",
		"rut": "78745710k",
		"nombre": "Alvarado Hermanos Limitada",
		"nombre_presentacion": "Alvarado Hermanos Limitada",
		"giro": "Ferretería",
		"direcciones": "Matucana 899",
		"telefono": "26816845",
		"correo": "matucana@ferreteriacarlitos.cl"
	},
	{
		"id": "142",
		"unidad_productiva_id": "1",
		"rut": "760592730",
		"nombre": "Zona Industrial Spa",
		"nombre_presentacion": "Zona Industrial Spa"
	},
	{
		"id": "143",
		"unidad_productiva_id": "1",
		"rut": "773130604",
		"nombre": "Comercial Serpan Ltda",
		"nombre_presentacion": "Econorent Car rental",
		"giro": "Arriendo de vehiculos"
	},
	{
		"id": "144",
		"unidad_productiva_id": "1",
		"rut": "9760715K",
		"nombre": "Juan Pablo Olivares Osses",
		"nombre_presentacion": "Juan Pablo Olivares Osses",
		"giro": "Fletes",
		"correo": "transcargopablo.olivares@gmail.com"
	},
	{
		"id": "145",
		"unidad_productiva_id": "1",
		"rut": "779057305",
		"nombre": "Soluciones Globales UnidadProductiva De Servicios Ltda",
		"nombre_presentacion": "Soluciones Globales UnidadProductiva De Servicios Ltda",
		"giro": "Reparación, instalación, mantención, servicios integrales, arriendo de vehiculos"
	},
	{
		"id": "146",
		"unidad_productiva_id": "1",
		"rut": "760581933",
		"nombre": "Comercial Y Consultora En Telecomunicaciones Cygnus Ltda",
		"nombre_presentacion": "Cygnus movil ltda"
	},
	{
		"id": "147",
		"unidad_productiva_id": "1",
		"rut": "968198300",
		"nombre": "Bozzo S.A.",
		"nombre_presentacion": "Bozzo S.A."
	},
	{
		"id": "148",
		"unidad_productiva_id": "1",
		"rut": "763063836",
		"nombre": "Importadora Tranpacifico Compañía Ltda",
		"nombre_presentacion": "Ferretería Transpacifico",
		"giro": "ferreteria",
		"direcciones": "san antonio 746 local 4 santiago centro"
	},
	{
		"id": "149",
		"unidad_productiva_id": "1",
		"rut": "839986009",
		"nombre": "Enrique Fulla E Hijos Ltda",
		"nombre_presentacion": "Ferreteria ENFU",
		"giro": "materiales electricos y ferreteria",
		"direcciones": "jj perez 6156 cerro navia"
	},
	{
		"id": "150",
		"unidad_productiva_id": "1",
		"rut": "967027103",
		"nombre": "Ferreteria Jj Garanchena Sa",
		"nombre_presentacion": "Ferreteria Jj Garanchena Sa",
		"giro": "ferreteria",
		"direcciones": "Av vitacura 4135"
	},
	{
		"id": "151",
		"unidad_productiva_id": "1",
		"rut": "65915073",
		"nombre": "Victor Antonio Olate Arevalo",
		"nombre_presentacion": "Victor Antonio Olate Arevalo",
		"giro": "pubblicidad actividades realcionados impresión"
	},
	{
		"id": "152",
		"unidad_productiva_id": "1",
		"rut": "761038230",
		"nombre": "Soc Com Silva Riveros Ltda",
		"nombre_presentacion": "Soc Com Silva Riveros Ltda",
		"giro": "compra y venta de maderas"
	},
	{
		"id": "153",
		"unidad_productiva_id": "1",
		"rut": "760513997",
		"nombre": "Comercializadora Alvaro Ramirez",
		"nombre_presentacion": "Comercializadora Alvaro Ramirez",
		"giro": "ferreteria"
	},
	{
		"id": "154",
		"unidad_productiva_id": "1",
		"rut": "763896803",
		"nombre": "Fabrica Y Distribuidora Zcb Ltda",
		"nombre_presentacion": "Fabrica Y Distribuidora Zcb Ltda",
		"giro": "Compra y venta de articulos plasticos"
	},
	{
		"id": "155",
		"unidad_productiva_id": "1",
		"rut": "783143607",
		"nombre": "Revestimientos Rubio Sa",
		"nombre_presentacion": "Revestimientos Rubio Sa",
		"giro": "Ceramicas pinturas y otros"
	},
	{
		"id": "156",
		"unidad_productiva_id": "1",
		"rut": "25525019",
		"nombre": "Luisa Espinoza Lopez",
		"nombre_presentacion": "Luisa Espinoza Lopez",
		"giro": "Ferreteria"
	},
	{
		"id": "157",
		"unidad_productiva_id": "1",
		"rut": "122366944",
		"nombre": "Fernando Enrique Perez Villegas",
		"nombre_presentacion": "Fernando Enrique Perez Villegas",
		"giro": "Ferreteria"
	},
	{
		"id": "158",
		"unidad_productiva_id": "1",
		"rut": "36979305",
		"nombre": "Jovina Del Carmen Valdes Valdes",
		"nombre_presentacion": "Jovina Del Carmen Valdes Valdes",
		"giro": "Ferreteria",
		"direcciones": "Matucana 61",
		"correo": "jovina.valdesv@gmail.com"
	},
	{
		"id": "159",
		"unidad_productiva_id": "1",
		"rut": "786451000",
		"nombre": "Dartel Iquique Limitada",
		"nombre_presentacion": "Dartel Iquique Limitada",
		"giro": "materiales electricos"
	},
	{
		"id": "160",
		"unidad_productiva_id": "1",
		"rut": "776291706",
		"nombre": "Jose Bravo Correa Y Cia Ltda",
		"nombre_presentacion": "Jose Bravo Correa Y Cia Ltda",
		"giro": "materiales electricos y construcción"
	},
	{
		"id": "161",
		"unidad_productiva_id": "1",
		"rut": "796591005",
		"nombre": "Distribuidora De Materiales Electricos Matelec Ltda",
		"nombre_presentacion": "Matelec",
		"giro": "materiales electricos"
	},
	{
		"id": "162",
		"unidad_productiva_id": "1",
		"rut": "651059666",
		"nombre": "Cooperativa De Trabajo Jatun Newen",
		"nombre_presentacion": "Jatún Newen"
	},
	{
		"id": "163",
		"unidad_productiva_id": "1",
		"rut": "884170001",
		"nombre": "Sky Airline Sa",
		"nombre_presentacion": "Sky Airline",
		"giro": "transporte aereo"
	},
	{
		"id": "164",
		"unidad_productiva_id": "1",
		"rut": "968821709",
		"nombre": "Cerradora De Sacos Sa",
		"nombre_presentacion": "Cerradora De Sacos Sa"
	},
	{
		"id": "165",
		"unidad_productiva_id": "1",
		"rut": "160873892",
		"nombre": "Solange Alexandra Montero Suarez ",
		"nombre_presentacion": "Ferreteria Rapel",
		"giro": "Ferreteria",
		"direcciones": "av mexico 1700",
		"telefono": "229320268",
		"correo": "ferreteriarapel@gmail.com"
	},
	{
		"id": "166",
		"unidad_productiva_id": "1",
		"rut": "761141430",
		"nombre": "Vtr Comunicaciones",
		"nombre_presentacion": "VTR"
	},
	{
		"id": "167",
		"unidad_productiva_id": "1",
		"rut": "774046305",
		"nombre": "Broncerias Camille Limitada",
		"nombre_presentacion": "Broncerias Camille Limitada"
	},
	{
		"id": "168",
		"unidad_productiva_id": "1",
		"rut": "764706579",
		"nombre": "Campos Industrial Sa",
		"nombre_presentacion": "Campos Industrial Sa"
	},
	{
		"id": "169",
		"unidad_productiva_id": "1",
		"rut": "796430001",
		"nombre": "Comercial Larrain  Vergara Y Cia Ltda",
		"nombre_presentacion": "Comercial Larrain  Vergara Y Cia Ltda",
		"giro": "rent a car"
	},
	{
		"id": "170",
		"unidad_productiva_id": "1",
		"rut": "908440005",
		"nombre": "Kupfer Hermanos Sa",
		"nombre_presentacion": "Kupfer Hermanos Sa"
	},
	{
		"id": "171",
		"unidad_productiva_id": "1",
		"rut": "969210606",
		"nombre": "Sociedad Comercial Sanchezz Herrera Sa",
		"nombre_presentacion": "PERNOS KIM"
	},
	{
		"id": "172",
		"unidad_productiva_id": "1",
		"rut": "767414331",
		"nombre": "Ferreteria Industrial Ferretek Spa",
		"nombre_presentacion": "Ferretek"
	},
	{
		"id": "173",
		"unidad_productiva_id": "1",
		"rut": "772018401",
		"nombre": "Carlos Herrera",
		"nombre_presentacion": "Carlos Herrera"
	},
	{
		"id": "174",
		"unidad_productiva_id": "1",
		"rut": "763587614",
		"nombre": "Ingenieria Jose Luis Muloz Parra Eirl",
		"nombre_presentacion": "Maxelectronica"
	},
	{
		"id": "175",
		"unidad_productiva_id": "1",
		"rut": "118418980",
		"nombre": "Edwin Jaime Rojo Araya",
		"nombre_presentacion": "Edwin Jaime Rojo Araya"
	},
	{
		"id": "176",
		"unidad_productiva_id": "1",
		"rut": "4816594K",
		"nombre": "Rebeca Trincado Espinoza",
		"nombre_presentacion": "Rebeca Trincado Espinoza"
	},
	{
		"id": "177",
		"unidad_productiva_id": "1",
		"rut": "762573598",
		"nombre": "Ferreteria Marcelo Quinteros Olivares Eirl",
		"nombre_presentacion": "Ferreteria Marcelo Quinteros Olivares Eirl"
	},
	{
		"id": "178",
		"unidad_productiva_id": "1",
		"rut": "130164420",
		"nombre": "Arturo Alejandro Martin Rojas",
		"nombre_presentacion": "Arturo Alejandro Martin Rojas",
		"giro": "residencial",
		"direcciones": "diego portales 451 COPIAPO"
	},
	{
		"id": "179",
		"unidad_productiva_id": "1",
		"rut": "858961009",
		"nombre": "Servicios Equifax Chile Limitada",
		"nombre_presentacion": "Equifax"
	},
	{
		"id": "180",
		"unidad_productiva_id": "1",
		"rut": "760426296",
		"nombre": "Comercial Jorge Bravo E I R L",
		"nombre_presentacion": "Comercial Jorge Bravo E I R L"
	},
	{
		"id": "181",
		"unidad_productiva_id": "1",
		"rut": "132264821",
		"nombre": "Alison Paula Del Carmen Ibarra Gonzalez",
		"nombre_presentacion": "Alison Paula Del Carmen Ibarra Gonzalez",
		"giro": "Plotter",
		"direcciones": "Alvarez 58 25ed, Viña del mar"
	},
	{
		"id": "182",
		"unidad_productiva_id": "1",
		"rut": "91647036",
		"nombre": "Marina Del Carmen Cifuentes Norambuena",
		"nombre_presentacion": "Marina Del Carmen Cifuentes Norambuena",
		"giro": "FERRETERIA"
	},
	{
		"id": "183",
		"unidad_productiva_id": "1",
		"rut": "787721001",
		"nombre": "Phonemarket Sa",
		"nombre_presentacion": "Phonemarket Sa"
	},
	{
		"id": "184",
		"unidad_productiva_id": "1",
		"rut": "760270776",
		"nombre": "Importadora Roman Ltda",
		"nombre_presentacion": "Importadora Roman Ltda"
	},
	{
		"id": "185",
		"unidad_productiva_id": "1",
		"rut": "12809699k",
		"nombre": "Miguel Alejandro Arce Lisboa",
		"nombre_presentacion": "Miguel Alejandro Arce Lisboa"
	},
	{
		"id": "186",
		"unidad_productiva_id": "1",
		"rut": "5713190k",
		"nombre": "Ramon Rodolfo Pina Vargas",
		"nombre_presentacion": "Ramon Rodolfo Pina Vargas",
		"giro": "Plotter"
	},
	{
		"id": "187",
		"unidad_productiva_id": "1",
		"rut": "48165761",
		"nombre": "Sergio Trincado Becerra",
		"nombre_presentacion": "Sergio Trincado Becerra",
		"giro": "FERRETERIA"
	},
	{
		"id": "188",
		"unidad_productiva_id": "1",
		"rut": "764936191",
		"nombre": "Cyc Facil Spa",
		"nombre_presentacion": "Cyc Facil Spa",
		"giro": "CEMENTO"
	},
	{
		"id": "189",
		"unidad_productiva_id": "1",
		"rut": "29377685",
		"nombre": "Raul Oreste Castro Reyes",
		"nombre_presentacion": "Raul Oreste Castro Reyes",
		"giro": "EQUIPOS OXIACETILENO"
	},
	{
		"id": "190",
		"unidad_productiva_id": "1",
		"rut": "113145676",
		"nombre": "Vladimir Mauricio Devia Salas",
		"nombre_presentacion": "Vladimir Mauricio Devia Salas",
		"giro": "ferreteria"
	},
	{
		"id": "191",
		"unidad_productiva_id": "1",
		"rut": "760637777",
		"nombre": "Sociedad Lucia Cruz E Hijas Limitada",
		"nombre_presentacion": "Servicruz",
		"giro": "ferreterria"
	},
	{
		"id": "192",
		"unidad_productiva_id": "1",
		"rut": "969198606",
		"nombre": "Distribuidora Y Comercial Tilicura Sa",
		"nombre_presentacion": "Tilicura",
		"giro": "Distribuidora de alcoholes"
	},
	{
		"id": "193",
		"unidad_productiva_id": "1",
		"rut": "46879384",
		"nombre": "Jaime Enrique Riquelme Gonzalez",
		"nombre_presentacion": "Casa Del Timbre"
	},
	{
		"id": "194",
		"unidad_productiva_id": "1",
		"rut": "650934598",
		"nombre": "Cooperativa De Trabajo Redgenera",
		"nombre_presentacion": "Redgenera"
	}
]