[
	{
		"id": "1",
		"unidad_productiva_id": 1,
		"nombre_presentacion": "Industrial/Grandes empresas"
	},
	{
		"id": "2",
		"unidad_productiva_id": 1,
		"nombre_presentacion": "Comercial"
	},
	{
		"id": "3",
		"unidad_productiva_id": 1,
		"nombre_presentacion": "Particular domiciliario"
	},
	{
		"id": "4",
		"unidad_productiva_id": 1,
		"nombre_presentacion": "Of. Arquitectura/Ag. ventas"
	},
	{
		"id": "5",
		"unidad_productiva_id": 1,
		"nombre_presentacion": "Contratistas"
	},
	{
		"id": "6",
		"unidad_productiva_id": 1,
		"nombre_presentacion": "Hospitalario"
	},
	{
		"id": "7",
		"unidad_productiva_id": 1,
		"nombre_presentacion": "Social comunitario"
	},
	{
		"id": "8",
		"unidad_productiva_id": 1,
		"nombre_presentacion": "Tercer sector (cooperativas-ong)"
	}
]