[
	{
		"id": "1",
		"codigo": "1",
		"unidad_productiva_id": 1,
		"nombre_presentacion": "Proyecto eléctrico"
	},
	{
		"id": "2",
		"codigo": "2",
		"unidad_productiva_id": 1,
		"nombre_presentacion": "Montaje eléctrico"
	},
	{
		"id": "3",
		"codigo": "3",
		"unidad_productiva_id": 1,
		"nombre_presentacion": "Arquitectura"
	},
	{
		"id": "4",
		"codigo": "4",
		"unidad_productiva_id": 1,
		"nombre_presentacion": "Construcción"
	},
	{
		"id": "5",
		"codigo": "5",
		"unidad_productiva_id": 1,
		"nombre_presentacion": "Equipos/materiales"
	},
	{
		"id": "6",
		"codigo": "6",
		"unidad_productiva_id": 1,
		"nombre_presentacion": "Ingeniería"
	},
	{
		"id": "7",
		"codigo": "7",
		"unidad_productiva_id": 1,
		"nombre_presentacion": "Inscripción SEC"
	},
	{
		"id": "8",
		"codigo": "8",
		"unidad_productiva_id": 1,
		"nombre_presentacion": "Inspección técnica"
	},
	{
		"id": "9",
		"codigo": "9",
		"unidad_productiva_id": 1,
		"nombre_presentacion": "Mantención"
	},
	{
		"id": "10",
		"codigo": "10",
		"unidad_productiva_id": 1,
		"nombre_presentacion": "Relatorías"
	},
	{
		"id": "11",
		"codigo": "11",
		"unidad_productiva_id": 1,
		"nombre_presentacion": "Reparaciones"
	},
	{
		"id": "12",
		"codigo": "12",
		"unidad_productiva_id": 1,
		"nombre_presentacion": "Mano de obra"
	},
	{
		"id": "13",
		"codigo": "13",
		"unidad_productiva_id": 1,
		"nombre_presentacion": "Malla tierra"
	}
]